<?xml version="1.0" encoding="utf-8"?>
<!-- Generator: Adobe Illustrator 23.0.4, SVG Export Plug-In . SVG Version: 6.00 Build 0)  -->
<svg version="1.1" id="Calque_1" xmlns="http://www.w3.org/2000/svg" xmlns:xlink="http://www.w3.org/1999/xlink" x="0px" y="0px"
	 viewBox="0 0 56.7 56.7" style="enable-background:new 0 0 56.7 56.7;" xml:space="preserve">
<style type="text/css">
	.st0{fill:#FFFFFF;}
</style>
<g>
	<g>
		<path class="st0" d="M36.2,21.5c0.2,0,0.4,0.1,0.6,0.2s0.2,0.3,0.2,0.6v10.4c0,0.4-0.2,0.8-0.5,1.1s-0.7,0.5-1.1,0.5H19.8
			c-0.5,0-0.9-0.2-1.3-0.5s-0.5-0.8-0.5-1.3v-9c0-0.2,0.1-0.4,0.2-0.6s0.3-0.2,0.6-0.2H20v-0.3c0-0.2,0.1-0.4,0.2-0.6
			s0.3-0.2,0.6-0.2H36.2z M19.8,32.7c0.1,0,0.1,0,0.2-0.1s0.1-0.1,0.1-0.2v-8.2h-0.5v8.2c0,0.1,0,0.1,0.1,0.2S19.7,32.7,19.8,32.7z
			 M34.5,25.7c0.1,0,0.2,0,0.3-0.1s0.1-0.2,0.1-0.3V24c0-0.1,0-0.2-0.1-0.3s-0.2-0.1-0.3-0.1h-12c-0.1,0-0.2,0-0.3,0.1
			s-0.1,0.2-0.1,0.3v1.3c0,0.1,0,0.2,0.1,0.3s0.2,0.1,0.3,0.1H34.5z M27.6,28.9c0.1,0,0.2,0,0.3-0.1s0.1-0.2,0.1-0.3v-0.3
			c0-0.1,0-0.2-0.1-0.3s-0.2-0.1-0.3-0.1h-5c-0.1,0-0.2,0-0.3,0.1s-0.1,0.2-0.1,0.3v0.3c0,0.1,0,0.2,0.1,0.3s0.2,0.1,0.3,0.1H27.6z
			 M27.6,32.1c0.1,0,0.2,0,0.3-0.1c0.1-0.1,0.1-0.2,0.1-0.3v-0.3c0-0.1,0-0.2-0.1-0.3s-0.2-0.1-0.3-0.1h-5c-0.1,0-0.2,0-0.3,0.1
			s-0.1,0.2-0.1,0.3v0.3c0,0.1,0,0.2,0.1,0.3c0.1,0.1,0.2,0.1,0.3,0.1H27.6z M34.5,28.9c0.1,0,0.2,0,0.3-0.1s0.1-0.2,0.1-0.3v-0.3
			c0-0.1,0-0.2-0.1-0.3s-0.2-0.1-0.3-0.1h-5c-0.1,0-0.2,0-0.3,0.1s-0.1,0.2-0.1,0.3v0.3c0,0.1,0,0.2,0.1,0.3s0.2,0.1,0.3,0.1H34.5z
			 M34.5,32.1c0.1,0,0.2,0,0.3-0.1c0.1-0.1,0.1-0.2,0.1-0.3v-0.3c0-0.1,0-0.2-0.1-0.3s-0.2-0.1-0.3-0.1h-5c-0.1,0-0.2,0-0.3,0.1
			s-0.1,0.2-0.1,0.3v0.3c0,0.1,0,0.2,0.1,0.3c0.1,0.1,0.2,0.1,0.3,0.1H34.5z"/>
	</g>
	<g>
		<g>
			<path class="st0" d="M27.7,9l16.8,9.7v19.4l-16.8,9.7l-16.8-9.7V18.8L27.7,9 M27.7,8.5l-17.3,10v20l17.3,10l17.3-10v-20L27.7,8.5
				L27.7,8.5z"/>
		</g>
	</g>
</g>
</svg>
