<?xml version="1.0" encoding="utf-8"?>
<!-- Generator: Adobe Illustrator 23.0.4, SVG Export Plug-In . SVG Version: 6.00 Build 0)  -->
<svg version="1.1" id="Calque_1" xmlns="http://www.w3.org/2000/svg" xmlns:xlink="http://www.w3.org/1999/xlink" x="0px" y="0px"
	 viewBox="0 0 268.1 309.3" style="enable-background:new 0 0 268.1 309.3;" xml:space="preserve">
<style type="text/css">
	.st0{fill:none;stroke:#FFFFFF;stroke-width:4.2396;stroke-miterlimit:10;}
	.st1{fill:#FFFFFF;}
</style>
<polygon class="st0" points="218.9,221.3 218.9,123.3 134.1,74.3 49.2,123.3 49.2,221.3 134.1,270.3 "/>
<g>
	<g>
		<g>
			<path class="st1" d="M122.2,176.8c0-1.1-0.9-2-2-2h-6.9c-1.1,0-2,0.9-2,2v6.9c0,1.1,0.9,2,2,2h6.9c1.1,0,2-0.9,2-2V176.8
				L122.2,176.8z"/>
			<path class="st1" d="M139.5,176.8c0-1.1-0.9-2-2-2h-6.9c-1.1,0-2,0.9-2,2v6.9c0,1.1,0.9,2,2,2h6.9c1.1,0,2-0.9,2-2V176.8z"/>
			<path class="st1" d="M156.8,176.8c0-1.1-0.9-2-2-2h-6.9c-1.1,0-2,0.9-2,2v6.9c0,1.1,0.9,2,2,2h6.9c1.1,0,2-0.9,2-2V176.8z"/>
			<path class="st1" d="M122.2,194.1c0-1.1-0.9-2-2-2h-6.9c-1.1,0-2,0.9-2,2v6.9c0,1.1,0.9,2,2,2h6.9c1.1,0,2-0.9,2-2V194.1
				L122.2,194.1z"/>
			<path class="st1" d="M139.5,194.1c0-1.1-0.9-2-2-2h-6.9c-1.1,0-2,0.9-2,2v6.9c0,1.1,0.9,2,2,2h6.9c1.1,0,2-0.9,2-2V194.1z"/>
			<path class="st1" d="M156.8,194.1c0-1.1-0.9-2-2-2h-6.9c-1.1,0-2,0.9-2,2v6.9c0,1.1,0.9,2,2,2h6.9c1.1,0,2-0.9,2-2L156.8,194.1
				L156.8,194.1z"/>
			<path class="st1" d="M169.1,138.4V149c0,4.8-3.9,8.6-8.6,8.6H155c-4.8,0-8.7-3.8-8.7-8.6v-10.6h-24.6V149c0,4.8-3.9,8.6-8.7,8.6
				h-5.5c-4.8,0-8.6-3.8-8.6-8.6v-10.6c-4.2,0.1-7.6,3.6-7.6,7.8v61.8c0,4.3,3.5,7.9,7.8,7.9h69.7c4.3,0,7.8-3.6,7.8-7.9v-61.8
				C176.7,142,173.3,138.5,169.1,138.4z M166.6,204.2c0,1.9-1.5,3.4-3.4,3.4h-58.4c-1.9,0-3.4-1.5-3.4-3.4v-31.9
				c0-1.9,1.5-3.4,3.4-3.4h58.4c1.9,0,3.4,1.5,3.4,3.4L166.6,204.2L166.6,204.2z"/>
			<path class="st1" d="M107.6,151.9h5.4c1.6,0,3-1.3,3-3v-17.3c0-1.6-1.3-3-3-3h-5.4c-1.6,0-3,1.3-3,3V149
				C104.7,150.6,106,151.9,107.6,151.9z"/>
			<path class="st1" d="M155,151.9h5.4c1.6,0,3-1.3,3-3v-17.3c0-1.6-1.3-3-3-3H155c-1.6,0-3,1.3-3,3V149
				C152,150.6,153.3,151.9,155,151.9z"/>
		</g>
	</g>
	<g>
	</g>
	<g>
	</g>
	<g>
	</g>
	<g>
	</g>
	<g>
	</g>
	<g>
	</g>
	<g>
	</g>
	<g>
	</g>
	<g>
	</g>
	<g>
	</g>
	<g>
	</g>
	<g>
	</g>
	<g>
	</g>
	<g>
	</g>
	<g>
	</g>
</g>
</svg>
