<?xml version="1.0" encoding="utf-8"?>
<!-- Generator: Adobe Illustrator 23.0.4, SVG Export Plug-In . SVG Version: 6.00 Build 0)  -->
<svg version="1.1" id="Calque_1" xmlns="http://www.w3.org/2000/svg" xmlns:xlink="http://www.w3.org/1999/xlink" x="0px" y="0px"
	 viewBox="0 0 56.7 56.7" style="enable-background:new 0 0 56.7 56.7;" xml:space="preserve">
<style type="text/css">
	.st0{fill:#FFFFFF;}
</style>
<g>
	<g>
		<path class="st0" d="M34.9,22.2c0.2,0.2,0.3,0.5,0.3,0.8c0,0.3-0.1,0.6-0.3,0.8l-3.5,3.5v9.9c0,0.3-0.1,0.6-0.4,0.8
			c-0.2,0.2-0.5,0.4-0.8,0.4h-0.6c-0.3,0-0.6-0.1-0.8-0.4c-0.2-0.2-0.4-0.5-0.4-0.8v-4.1h-0.6v4.1c0,0.3-0.1,0.6-0.4,0.8
			c-0.2,0.2-0.5,0.4-0.8,0.4h-0.6c-0.3,0-0.6-0.1-0.8-0.4c-0.2-0.2-0.4-0.5-0.4-0.8v-9.9l-3.5-3.5c-0.2-0.2-0.3-0.5-0.3-0.8
			c0-0.3,0.1-0.6,0.4-0.8c0.2-0.2,0.5-0.4,0.8-0.4c0.3,0,0.6,0.1,0.8,0.3l3.2,3.2h3.8l3.2-3.2c0.2-0.2,0.5-0.3,0.8-0.3
			C34.4,21.8,34.7,22,34.9,22.2z M25.5,22.1c0,0.7,0.3,1.4,0.8,1.9s1.1,0.8,1.9,0.8s1.4-0.3,1.9-0.8s0.8-1.1,0.8-1.9
			s-0.3-1.4-0.8-1.9s-1.1-0.8-1.9-0.8s-1.4,0.3-1.9,0.8S25.5,21.4,25.5,22.1z"/>
	</g>
	<g>
		<g>
			<path class="st0" d="M27.7,9l16.8,9.7v19.4l-16.8,9.7l-16.8-9.7V18.8L27.7,9 M27.7,8.5l-17.3,10v20l17.3,10l17.3-10v-20L27.7,8.5
				L27.7,8.5z"/>
		</g>
	</g>
</g>
</svg>
