<?xml version="1.0" encoding="utf-8"?>
<!-- Generator: Adobe Illustrator 23.0.4, SVG Export Plug-In . SVG Version: 6.00 Build 0)  -->
<svg version="1.1" id="Calque_1" xmlns="http://www.w3.org/2000/svg" xmlns:xlink="http://www.w3.org/1999/xlink" x="0px" y="0px"
	 viewBox="0 0 56.7 56.7" style="enable-background:new 0 0 56.7 56.7;" xml:space="preserve">
<style type="text/css">
	.st0{fill:#FFFFFF;}
</style>
<g>
	<path class="st0" d="M36.1,36c0.2,0.2,0.2,0.3,0.2,0.6s-0.1,0.4-0.2,0.6l-0.9,0.9c-0.2,0.2-0.3,0.2-0.6,0.2s-0.4-0.1-0.6-0.2
		l-3.3-3.3c-0.2-0.2-0.2-0.3-0.2-0.6v-0.5c-1.2,1-2.7,1.5-4.2,1.5c-1.3,0-2.4-0.3-3.5-0.9s-1.9-1.5-2.5-2.5
		c-0.6-1.1-0.9-2.2-0.9-3.5s0.3-2.4,0.9-3.5s1.5-1.9,2.5-2.5s2.2-0.9,3.5-0.9s2.4,0.3,3.5,0.9s1.9,1.5,2.5,2.5
		c0.6,1.1,0.9,2.2,0.9,3.5c0,1.6-0.5,3-1.5,4.3h0.5c0.2,0,0.4,0.1,0.6,0.2L36.1,36z M26.2,32.5c0.8,0,1.5-0.2,2.1-0.6
		c0.7-0.4,1.2-0.9,1.5-1.5s0.6-1.4,0.6-2.1s-0.2-1.5-0.6-2.1s-0.9-1.2-1.5-1.5S27,24,26.2,24s-1.5,0.2-2.1,0.6s-1.2,0.9-1.5,1.5
		S22,27.5,22,28.2s0.2,1.5,0.6,2.1s0.9,1.2,1.5,1.5C24.7,32.3,25.5,32.5,26.2,32.5z"/>
</g>
<g>
	<g>
		<path class="st0" d="M27.7,9l16.8,9.7v19.4l-16.8,9.7l-16.8-9.7V18.8L27.7,9 M27.7,8.5l-17.3,10v20l17.3,10l17.3-10v-20L27.7,8.5
			L27.7,8.5z"/>
	</g>
</g>
</svg>
