<?xml version="1.0" encoding="utf-8"?>
<!-- Generator: Adobe Illustrator 23.0.4, SVG Export Plug-In . SVG Version: 6.00 Build 0)  -->
<svg version="1.1" id="Calque_1" xmlns="http://www.w3.org/2000/svg" xmlns:xlink="http://www.w3.org/1999/xlink" x="0px" y="0px"
	 viewBox="0 0 209 241" style="enable-background:new 0 0 209 241;" xml:space="preserve">
<style type="text/css">
	.st0{fill:#5CBCB0;}
</style>
<polygon class="st0" points="208.4,180.2 208.4,60.2 104.5,0.2 0.6,60.2 0.6,180.2 104.5,240.2 "/>
</svg>
