<?xml version="1.0" encoding="utf-8"?>
<!-- Generator: Adobe Illustrator 23.0.4, SVG Export Plug-In . SVG Version: 6.00 Build 0)  -->
<svg version="1.1" id="Calque_1" xmlns="http://www.w3.org/2000/svg" xmlns:xlink="http://www.w3.org/1999/xlink" x="0px" y="0px"
	 viewBox="0 0 100 103" style="enable-background:new 0 0 100 103;" xml:space="preserve">
<style type="text/css">
	.st0{fill:#406BB1;}
	.st1{fill:#FFFFFF;}
</style>
<polygon class="st0" points="93.7,77.5 93.7,26.5 49.5,1 5.3,26.5 5.3,77.5 49.5,103 "/>
<path class="st1" d="M57.6,54.7c1.3,0,2.6,0.3,3.8,1c1.2,0.7,2.1,1.6,2.8,2.8c0.7,1.2,1,2.4,1,3.8v1.6c0,0.4-0.2,0.8-0.5,1.1
	c-0.3,0.3-0.7,0.5-1.1,0.5H32.3c-0.4,0-0.8-0.2-1.1-0.5s-0.5-0.7-0.5-1.1v-1.6c0-1.3,0.3-2.6,1-3.8c0.7-1.2,1.6-2.1,2.8-2.8
	c1.2-0.7,2.4-1,3.8-1h2c2.4,1.4,5,2.2,7.8,2.2s5.4-0.7,7.8-2.2H57.6z M37.1,41.8c0,1.9,0.5,3.7,1.5,5.4c1,1.7,2.3,3,3.9,3.9
	s3.5,1.5,5.4,1.5s3.7-0.5,5.4-1.5c1.7-1,3-2.3,3.9-3.9c1-1.7,1.5-3.5,1.5-5.4c0-1.9-0.5-3.7-1.5-5.4c-1-1.7-2.3-3-3.9-3.9
	c-1.7-1-3.5-1.5-5.4-1.5s-3.7,0.5-5.4,1.5c-1.7,1-3,2.3-3.9,3.9C37.6,38,37.1,39.8,37.1,41.8z"/>
</svg>
