<?xml version="1.0" encoding="utf-8"?>
<!-- Generator: Adobe Illustrator 23.0.4, SVG Export Plug-In . SVG Version: 6.00 Build 0)  -->
<svg version="1.1" id="Calque_1" xmlns="http://www.w3.org/2000/svg" xmlns:xlink="http://www.w3.org/1999/xlink" x="0px" y="0px"
	 viewBox="0 0 60 68" style="enable-background:new 0 0 60 68;" xml:space="preserve">
<style type="text/css">
	.st0{fill:#EB5594;}
	.st1{fill:#FFFFFF;}
</style>
<polygon class="st0" points="59,50.8 59,17.2 30,0.5 1,17.2 1,50.8 30,67.5 "/>
<path class="st1" d="M25.5,41.2c-1.6-2.3-2.6-3.8-3.1-4.6c-0.7-1.1-1.2-2.1-1.5-2.9c-0.3-0.8-0.4-1.7-0.4-2.7c0-1.6,0.4-3.2,1.2-4.5
	c0.8-1.4,1.9-2.5,3.3-3.3s2.9-1.2,4.5-1.2s3.2,0.4,4.5,1.2s2.5,1.9,3.3,3.3c0.8,1.4,1.2,2.9,1.2,4.5c0,1-0.1,1.9-0.4,2.7
	c-0.3,0.8-0.7,1.7-1.5,2.9c-0.5,0.8-1.5,2.3-3.1,4.6l-3.2,4.5c-0.2,0.3-0.5,0.5-0.9,0.5s-0.7-0.2-0.9-0.5
	C27.8,44.6,26.7,43.1,25.5,41.2z M32.2,33.8c0.7-0.7,1.1-1.6,1.1-2.7c0-1-0.4-1.9-1.1-2.7c-0.7-0.7-1.6-1.1-2.7-1.1
	s-1.9,0.4-2.7,1.1s-1.1,1.6-1.1,2.7c0,1,0.4,1.9,1.1,2.7s1.6,1.1,2.7,1.1S31.5,34.5,32.2,33.8z"/>
</svg>
