<?xml version="1.0" encoding="utf-8"?>
<!-- Generator: Adobe Illustrator 22.1.0, SVG Export Plug-In . SVG Version: 6.00 Build 0)  -->
<svg version="1.1" id="Calque_1" xmlns="http://www.w3.org/2000/svg" xmlns:xlink="http://www.w3.org/1999/xlink" x="0px" y="0px"
	 viewBox="0 0 541.4 483" style="enable-background:new 0 0 541.4 483;" xml:space="preserve">
<title>Construction</title>
<path d="M10,482.9c2.1-6.5,4.2-13.1,6.2-19.7c7.2-23.1,14.3-46.3,21.5-69.4c0.5-1.7,0.9-3.4,1-5.2c0.8-12.1,1.4-24.3,2.1-36.4
	c0.9-14.7,1.8-29.4,2.7-44.1c0.5-8.8,1-17.6,1.5-26.4c0-0.9,0-1.7,0-2.9L0.1,267.8c0-1-0.1-1.7-0.1-2.5c0-23.5,0-47,0-70.6
	c-0.1-1.5,0.6-3,1.8-3.9c17.9-15.6,35.8-31.2,53.7-46.9c0.9-0.8,2-1.2,3.2-1.1c7.5,0.7,15,1.3,22.5,1.9c1,0.1,2.1-0.2,2.8-0.9
	c6.3-5.3,12.6-10.6,19.1-16.1c-17.4-13.5-24.5-30.9-20.9-52.9l100.4,13.3c1.5,7-4.2,21.9-11.7,30.7c-7.3,8.6-17.3,14.5-28.3,16.8
	c2,5.4,3.8,10.6,5.8,16c11,0.6,22.1,0.9,33.4,1.5c0.3,2.7,0.7,5.4,1,8c1.2,10.8,2.5,21.6,3.7,32.4c1,9,2.1,18.1,3.1,27.2
	c0.9,7.5,1.6,15.1,2.6,22.6c0.6,3.2,1.4,6.4,2.4,9.5c3.5,12.3,6.9,24.6,10.4,36.9c0.2,0.6,0.3,1.2,0.5,2.1c-0.9-0.4-1.4-0.6-1.9-0.9
	c-9.5-5.6-19.1-11.1-28.6-16.7c-1.1-0.6-2-1.6-2.4-2.8c-2.2-6-4.8-11.9-6.8-17.9c-1-3.1-1.2-6.6-1.6-9.9
	c-1.4-11.3-2.6-22.5-4.2-33.9c-0.2,0.5-0.4,1.1-0.6,1.6c-3.6,14.4-7.1,28.7-10.6,43c-0.3,1.2-0.3,2.4,0.1,3.5
	c1.8,6.2,3.6,12.4,5.3,18.7c0.4,1.5,1.4,2.8,2.8,3.5c28.5,16.1,57.1,32.3,85.6,48.5l30.3,17.1c0.8,0.4,1.5,0.8,2.6,1.4l18.7-32.5
	l45.2,26l-47.8,82.9l-45.2-26l19.4-33.8l-103.2-58.4c0.2,1.1,0.3,1.7,0.5,2.4c4.9,19.3,12,37.9,18.6,56.7c1.9,5.3,3.7,10.5,5.6,15.8
	c0.5,1.3,0.6,2.7,0.3,4l-18.2,97.1c-0.1,0.5-0.2,0.9-0.4,1.4H131c0-0.7,0-1.4,0.1-2.1c2.3-12.3,4.5-24.5,6.9-36.8
	c3-15.9,5.9-31.9,8.9-47.8c0.3-1.3,0.1-2.7-0.4-3.9c-8.5-23-16.9-46.1-25.4-69.1c-0.3-0.8-0.6-1.6-0.9-2.4
	c-3.1-0.5-28.3-0.3-30.1,0.2c-0.2,1.4-0.3,2.8-0.5,4.2c-2.6,20.2-5.1,40.4-7.7,60.7c-0.3,3-0.9,6-1.8,8.9
	c-9.9,28.5-19.8,57.1-29.6,85.6c-0.3,0.8-0.4,1.7-0.7,2.5L10,482.9z M47.7,244.6c0.5-4.5,0.3-41.8-0.2-43.6
	c-0.3,0.2-0.5,0.3-0.8,0.5c-5.6,5.1-11.2,10.2-16.8,15.3c-0.8,0.8-1.3,1.9-1.1,3c0,5.7,0,11.3,0,17v3.5L47.7,244.6z"/>
<path d="M289.4,482.9c0.2-0.7,0.5-1.5,0.9-2.2c27.1-49.5,54.2-99,81.4-148.4c0.5-0.8,1-1.6,1.5-2.6l24.1,9.6l36.3-56.3
	c0.7,0.1,1.4,0.2,2.1,0.4c8.9,2.4,17.7,4.9,26.6,7.2c1.7,0.3,3.1,1.6,3.6,3.2c16.3,41,32.7,82,49.1,122.9
	c8.4,20.9,16.7,41.9,25.1,62.8c0.4,1,0.9,2,1.3,3c0,1.1-0.8,0.4-1.2,0.5c-10.8,0-21.6,0-32.4,0c-0.1-0.2-0.2-0.4-0.3-0.6
	c-12.7-18.4-25.5-36.8-38.2-55.2c-0.7-1-1.8-1.5-3-1.3c-11,0-21.9,0-32.9,0c-1.4-0.1-2.8,0.6-3.6,1.8
	c-13.5,17.9-26.9,35.8-40.5,53.7c-0.4,0.6-0.7,1.2-1,1.8H289.4z"/>
<path d="M496.2,482.9h-96.5c11.5-15.2,23-30.5,34.5-45.8c0.8-1.4,2.3-2.1,3.9-2c7.6,0.1,15.2,0.1,22.8,0c1.4-0.1,2.8,0.6,3.5,1.8
	c4.5,6.6,9.1,13.2,13.6,19.7L496.2,482.9z"/>
<path d="M197.9,80.7L71.9,64c0.2-0.9,0.3-1.7,0.5-2.4C75.1,50,79.2,39,85.5,29c5.1-8.4,12-15.5,20.3-20.7c11-6.8,23-9.2,35.9-8
	c8.2,0.7,16.1,2.9,23.4,6.6c12.6,6.6,21.1,16.9,26.4,29.9c3.5,8.6,5.6,17.7,6.2,27c0.3,4.4,0.3,8.8,0.4,13.2
	C198.1,78.1,198,79.3,197.9,80.7z"/>
</svg>
