{
	"food": {
		"name" : "Agriculture/Alimentation",
		"icon" : "fa-cutlery",
		"color":"green",
		"tags" : ["agriculture","food", "nutrition", "AMAP"]
	},  
	"health": {
		"name" : "Health",
		"color":"red",
		"icon" : "fa-heart-o",
		"tags" : ["health", "wellness"]
	},  
	"waste": {
		"name" : "Déchets/réemploi",
		"icon" : "fa-trash-o ",
		"color" : "orange",
		"tags" : ["waste", "recycle", "secondLife", "circularEconomy"]
	},  
	"mobility": {
		"name" : "Mobilité",
		"icon" : "fa-bus",
		"color":"orange",
		"tags" : ["urbanism","transport","mobility"]
	},  
	"publicsTrade":{
		"name":"Achats publics",
		"icon" : "home",
		"color" : "orange",
		"tags" : ["society", "citizen", "citizenship","culture"]
	},
	"water":{
		"name":"Eau",
		"icon" : "home",
		"color":"green",
		"tags" : ["water", "waterInfrastucture", "citizenship","culture"]
	},
	"efficacity":{
		"name":"Efficacité Energétique",
		"icon" : "home",
		"color" : "orange",
		"tags" : ["society", "citizen", "citizenship","culture"]
	},
	"finance":{
		"name":"Finance",
		"icon" : "home",
		"color" : "yellow",
		"tags" : ["society", "citizen", "citizenship","culture"]
	},
	"livingArea":{
		"name":"Logement",
		"icon" : "home",
		"color" : "orange",
		"tags" : ["house", "appartement", "livingArea"]
	},
	"democracy":{
		"name":"Démocratie",
		"icon" : "home",
		"color" : "purple",
		"tags" : ["society", "citizen", "citizenship","culture"]
	},
	"livingTogether": {
		"name" : "Vivre-ensemble",
		"icon" : "handshake",
		"color":"purple",
		"tags" : ["society", "citizen", "citizenship","culture"]
	},  
	"education" : {
		"name":"Sensibilisation",
		"icon" : "fa-book",
		"color":"purple",
		"tags" : ["education","sensibilisation", "childhood","culture"]
	},
	"economy": {
		"name" : "Économie",
		"icon" : "money",
		"color": "yellow",
		"tags" : [ "ess","social solidarity economy", "economy" ]
	},  
	"energy": {
		"name" : "Energy",
		"icon" : "sun-o",
		"color": "green",
		"tags" : ["energy" ,"climat"]
	},  
	"culture": {
		"name" : "Culture",
		"color":"purple",
		"icon" : "fa-universal-access",
		"tags" : ["culture" ,"animation"]
	},  
	"climateChange": {
		"name" : "Changement climatique",
		"icon" : "fa-sun-o",
		"color":"green",
		"tags" : ["environement", "Changement climatique", "ecology"]
	},  
	"numeric": {
		"name" : "Numérique",
		"icon" : "laptop",
		"color":"orange",
		"tags" : ["numeric","itc","internet"]
	},
	"biodiversity" : { 
		"name" : "Biodiversité",
		"color":"green",
		"icon" : "fa-tree",
		"tags" : ["biodiversity"]
	}
	
}
