{
    "welcomeTpl" : "costum.views.custom.amaprafinerie.home",
    "sourceKey" : true,
    "slug" : "amaprafinerie",
    "favicon" : "/ico/amaprafinerie/favicon.ico",
    "metaImg" : "/images/amaprafinerie/banner.png",
    "typeObj" : {
        "organizations" : {
            "add" : true
        },
        "projects" : {
            "add" : true
        },
        "events" : {
            "add" : true
        },
        "citoyens" : {
            "add" : true
        },
        "ressources" : {
            "add" : true
        }
    },
    "htmlConstruct" : {
        "appRendering" : "vertical",
        "redirect" : {
            "logged" : "search",
            "unlogged" : "welcome"
        },
        "adminPanel" : {
            "js":true,
            "add" : true,
            "menu":{
                "statistic" : true,
                "directory" : true,
                "community" : {"show":true},
                "reference" : {
                    "show":true,
                    "initType" : [ 
                        "organizations"
                    ]
                },
                "importsiret" : {
                    "label": "Import des SIREN",
                    "icon" : "upload",
                    "view" : "importsiret",
                    "class" : "text-blue"
                },
                "organizations" : {
                    "label": "Organisations CRESS Reunion",
                    "icon" : "users",
                    "view" : "organizations",
                    "class" : "text-green"
                },
                "importorga" : {
                    "label": "Import des organisations",
                    "icon" : "upload",
                    "view" : "importorga",
                    "class" : "text-green"
                }
            }
        },
        "header" : {
            "banner" : "costum.views.custom.amaprafinerie.banner",
            "menuTop" : {
                "navLeft" : {
                    "searchBar" : true,
                    "useFilter" : {
                        "scopeFilter" : true,
                        "showFilter" : true
                    }
                },
                "navRight" : {
                    "connected" : {
                        "dropdownUser" : {
                            "languages" : true,
                            "statistics" : false,
                            "documentation" : false,
                            "donate" : false,
                            "admin" : true,
                            "settings" : false,
                            "logout" : true
                        },
                        "userProfil" : {
                            "img" : true,
                            "name" : true
                        },
                        "networkFloop" : true,
                        "notifications" : true,
                        "dda" : false,
                        "chat" : true,
                        "home" : false,
                        "app" : false
                    },
                    "disconnected" : {
                        "languages" : true,
                        "login" : true
                    }
                }
            }
        },
        "directory" : {
            "results" : {
                "organizations" : {
                    "defaultImg" : "/images/amaprafinerie/default_directory.png"
                },
                "projects" : {
                    "defaultImg" : "/images/amaprafinerie/default_directory.png"
                },
                "events" : {
                    "defaultImg" : "/images/amaprafinerie/default_directory.png"
                }
            }
        },
        "element" : {
            "initView" : "detail",
            "menuLeft" : {
                "detail" : true,
                "gallery" : true,
                "community" : true,
                "events" : true,
                "projects" : true,
                "ressources" : true
            },
            "menuTop" : {
                "img":true,
                "btnGroup":{
                    "imgProfil":true,
                    "nameProfil":true,
                    "newspaper" : true,
                    "cospace":true,
                    "chat":true,
                    "create":true,
                    "params" : {
                        "dropdown":{
                            "history" : true,
                            "settings" : true,
                            "mindmap" : true,
                            "editSlug" : true,
                            "delete" : true
                        }
                    }
                }
            }
        },
        "menuBottom" : {
            "add" : true
        }
    },
    "css" : {
        "loader" : {
            "background" : "white",
            "ring1" : {
                "color" : "#00b3de",
                "height" : 360,
                "width" : 360,
                "left" : -15,
                "borderWidth" : 4,
                "top" : -35
            },
            "ring2" : {
                "color" : "#9dc21c",
                "height" : 350,
                "width" : 350,
                "left" : -10,
                "borderWidth" : 5,
                "top" : -30
            }
        },
        "progress" : {
            "value" : {
                "background" : "#9dc21c"
            },
            "bar" : {
                "background" : "#fff"
            }
        },
        "header" : {
            "height" : 150
        },
        "menuTop" : {
            "background" : "#00b3de",
            "button" : {
                "paddingTop" : 0,
                "fontSize" : 30,
                "color" : "white"
            },
            "badge" : {
                "background" : "white",
                "color" : "#00b3de",
                "border" : "1px solid white"
            },
            "scopeBtn" : {
                "display" : "none"
            },
            "filterBtn" : {
                "display" : "none"
            },
            "connectBtn" : {
                "background" : "#004c97",
                "color" : "white",
                "fontSize" : 18,
                "borderRadius" : 10,
                "padding" : "8px 15px"
            }
        },
        "menuApp" : {
            "background" : "#9dc21c",
            "button" : {
                "fontSize" : 25,
                "color" : "#fff",
                "hover" : {
                    "borderBottom" : "2px solid #fff"
                }
            }
        },
        "button" : {
            "footer" : {
                "add" : {
                    "bottom" : 25,
                    "background" : "transparent",
                    "color" : "white"
                },
                "toolbarAdds" : {
                    "bottom" : 30
                }
            }
        },
        "color" : {
            "green" : "#98bf16",
            "blue" : "#00a0d0",
            "orange" : "#ea990a",
            "red" : "#b52258",
            "dark" : "#444"
        }
    },
    "app" : {
        "#search" : {
            "subdomainName" : "Les acteurs et initiatives de l'ESS",
            "icon" : "group",
            "filters" : {
                "types" : [ 
                    "NGO", 
                    "Group", 
                    "GovernmentOrganization", 
                    "LocalBusiness", 
                    "projects"
                ]
            }
        },
        "#agenda" : {
            "subdomainName" : "Le calendrier solidaire"
        },
        "#annonces" : {
            "icon" : "cogs",
            "subdomainName" : "S'entraider",
            "filters" : {
                "types" : "ressources"
            }
        },
        "#live" : {
            "icon" : "newspaper-o",
            "subdomaineName" : "L'actualité solidaire",
            "slug" : "amaprafinerie",
            "formCreate" : false,
            "useFilter" : false
        }
    },
    "filters" : {
        "sourceKey" : true,
        "searchTypeGS" : [ 
            "organizations", 
            "projects"
        ]
    }
}