{
    "welcomeTpl" : "costum.views.custom.coeurNumerique.home",
    "name" : "test",
    "sourceKey" : true,
    "slug" : "coeurNumerique",
    "favicon" : "/images/coeurNumerique/icone.png",
    "metaImg" : "/images/coeurNumerique/logo.png",
    "logoMin" : "/images/coeurNumerique/logo.png",
    "logo" : "/images/coeurNumerique/logo.png",
    "js" : {
        "urls" : [
            "index.js"
        ]
    },
    "filters" : {
        "sourceKey" : true
    },
    "htmlConstruct" : {
        "appRendering" : "vertical",
        "redirect" : {
            "logged" : "welcome",
            "unlogged" : "welcome"
        },
        "header" : {
            "menuTop" : {
                "navLeft" : {
                    "logo" : {
                        "height" : 40
                    },
                    "searchBar" : true,
                    "useFilter" : {
                        "scopeFilter" : false,
                        "showFilter" : false
                    },
                    "nameMenuTop":{
                        "name" : "La réunion 100% numérique...",
                        "top" : 1.75
                    }
                },
                "navRight" : {
                    "connected" : {
                        "dropdownUser" : {
                            "languages" : false,
                            "statistics" : false,
                            "documentation" : false,
                            "donate" : false,
                            "admin" : true,
                            "settings" : false,
                            "logout" : true
                        },
                        "userProfil" : {
                            "img" : true,
                            "name" : true
                        },
                        "networkFloop" : true,
                        "notifications" : true,
                        "dda" : false,
                        "chat" : true,
                        "home" : false,
                        "app" : true
                    },
                    "disconnected" : {
                        "languages" : false,
                        "login" : true
                    }
                }
            }
        },
        "directory" : {
            "results" : {
                "organizations" : {
                    "defaultImg" : "/images/coeurNumerique/default_directory.png"
                },
                "projects" : {
                    "defaultImg" : "/images/coeurNumerique/default_directory.png"
                },
                "events" : {
                    "defaultImg" : "/images/coeurNumerique/default_directory.png"
                }
            },
            "preview" : true,
            "footer" : {
                "add" : false
            }
        },
        "footer" : {
            "url" : "costum.views.custom.coeurNumerique.footer"
        },
        "element" : {
            "js" : "pageProfil.js",
            "css" : "pageProfil.css",
            "initView" : "newspaper",
            "banner" : {
                "img" : "/images/coeurNumerique/banner.jpg",
                "preferences" : true,
                "editButton" : {
                    "dynform" : true
            },
            "headerInfos": "costum.views.custom.coeurNumerique.element.headerInfos"
        },
            "menuLeft" : {
                "detail" : true,
                "gallery" : true,
                "events" : true,
                "projects" : true,
                "community" : true
            },
            "menuTop" : {
                "img" : true,
                "btnGroup" : {
                    "imgProfil" : true,
                    "nameProfil" : true,
                    "newspaper" : true,
                    "cospace" : false,
                    "chat" : false,
                    "create" : false,
                    "params" : {
                        "dropdown" : true
                    }
                },
                "navRight" : {
                    "connected" : {
                        "dropdownUser" : {
                            "languages" : true,
                            "statistics" : false,
                            "documentation" : false,
                            "donate" : false,
                            "admin" : true,
                            "settings" : false,
                            "logout" : true
                        },
                        "userProfil" : {
                            "img" : true
                        },
                        "networkFloop" : false,
                        "notifications" : true,
                        "dda" : false,
                        "chat" : false,
                        "home" : false,
                        "app" : false
                    },
                    "disconnected" : {
                        "languages" : false,
                        "login" : true,
                        "app" : true
                    }
                }
            }
        },
        "menuBottom" : {
            "add" : true
        }
    },
    "css" : {
        "loader" : {
            "background" : "white",
            "ring1" : {
                "color" : "#6abea2",
                "height" : 360,
                "width" : 360,
                "left" : -15,
                "borderWidth" : 4,
                "top" : -35
            },
            "ring2" : {
                "color" : "#313757",
                "height" : 350,
                "width" : 350,
                "left" : -10,
                "borderWidth" : 5,
                "top" : -30
            }
        },
        "progress" : {
            "value" : {
                "background" : "#313757"
            },
            "bar" : {
                "background" : "red"
            }
        },
        "menuTop" : {
            "background" : "#e2e2e2",
            "button" : {
                "paddingTop" : 900,
                "fontSize" : 25,
                "color" : "#00aca9"
            },
            "badge" : {
                "background" : "#497614",
                "border" : "3px solid white"
            },
            "scopeBtn" : {
                "display" : "none"
            },
            "filterBtn" : {
                "display" : "none"
            },
            "connectBtn" : {
                "background" : "#313757",
                "color" : "white",
                "fontSize" : 18,
                "borderRadius" : 10,
                "padding" : "8px 15px"
            }
        },
        "menuApp" : {
            "top" : "55",
            "background" : "#f6f6f6",
            "button" : {
                "fontSize" : 25,
                "color" : "#41445c",
                "hover" : {
                    "borderBottom" : "2px solid #fff"
                }
            }
        },
        "button" : {
            "footer" : {
                "add" : {
                    "bottom" : 10,
                    "background" : "#00aca9",
                    "color" : "white"
                },
                "toolbarAdds" : {
                    "bottom" : 10
                }
            }
        },
        "color" : {
            "blue" : "#41435b",
            "bg-green" : "#00aca9"
        },
        "urls" : [
            "index.css",
            "filters.css"
        ],
        "font":{
            "url" : "/font/coeurNumerique/SharpSansNo1-Medium.ttf"
        },
        "menuRight" : {
            "img" : {
                "chat" : "/images/coeurNumerique/icon/chat.svg",
                "notifications" : "/images/coeurNumerique/icon/notif.svg",
                "networkFloop" : "/images/coeurNumerique/icon/people.svg"
            }
        }
    },
    "app" : {
        "#welcome" : {
            "subdomainName" : "Accueil Fillière Numérique"
        },
        "#filiere" : {
            "hash" : "#app.search",
            "icon" : "search",
            "header": "costum.views.custom.coeurNumerique.filters",
            "urlExtra" : "/page/filiere",
            "img" : "/images/coeurNumerique/icon/annuaire.svg",
            "nameMenuTop" : "Annuaire",
            "subdomainName" : "",
            "class" : "Annuaire",
            "placeholderMainSearch" : "what are you looking for ?",
            "inMenu":true,
            "useHeader" : false,
            "useFilter" : true,
            "useFooter" : true,
            "filters" : {
                "types" : [ 
                    "organizations",
                    "events",
                    "projects"
                ]
            },
            "searchObject" : {
                "indexStep" : "0"
            }
        },
        "#Producteur" : {
            "hash" : "#app.search",
            "icon" : "search",
            "header": "costum.views.custom.coeurNumerique.filters",
            "urlExtra" : "/page/Producteur",
            "subdomainName" : "Tous les acteurs productions",
            "placeholderMainSearch" : "what are you looking for ?",
            "inMenu":false,
            "useHeader" : false,
            "useFilter" : true,
            "useFooter" : true,
            "filters" : {
                "types" : [ 
                    "organizations"
                ]
            },
            "searchObject" : {
                "indexStep" : "0"
            }
        },
        "#Formateur" : {
            "hash" : "#app.search",
            "icon" : "search",
            "header": "costum.views.custom.coeurNumerique.filters",
            "urlExtra" : "/page/Formateur",
            "subdomainName" : "Tous les acteurs formateurs",
            "placeholderMainSearch" : "what are you looking for ?",
            "inMenu":false,
            "useHeader" : false,
            "useFilter" : true,
            "useFooter" : true,
            "filters" : {
                "types" : [ 
                    "organizations"
                ]
            },
            "searchObject" : {
                "indexStep" : "0"
            }
        },
        "#Strategie" : {
            "hash" : "#app.search",
            "icon" : "search",
            "header": "costum.views.custom.coeurNumerique.filters",
            "urlExtra" : "/page/Strategie",
            "subdomainName" : "Tous les acteurs formateurs",
            "placeholderMainSearch" : "what are you looking for ?",
            "inMenu":false,
            "useHeader" : false,
            "useFilter" : true,
            "useFooter" : true,
            "filters" : {
                "types" : [ 
                    "organizations"
                ]
            },
            "searchObject" : {
                "indexStep" : "0"
            }
        },
        "#Etudiant" : {
            "hash" : "#app.search",
            "icon" : "search",
            "header": "costum.views.custom.coeurNumerique.filters",
            "urlExtra" : "/page/Etudiant",
            "subdomainName" : "Tous les acteurs étudiants",
            "placeholderMainSearch" : "what are you looking for ?",
            "inMenu":false,
            "useHeader" : false,
            "useFilter" : true,
            "useFooter" : true,
            "filters" : {
                "types" : [ 
                    "organizations"
                ]
            },
            "searchObject" : {
                "indexStep" : "0"
            }
        },
        "#live" : {
            "subdomainName" : "",
            "class" : "Annuaire",
            "slug" : "coeurNumerique",
            "img" : "/images/coeurNumerique/icon/actu.svg",
            "nameMenuTop" : "Actus",
            "formCreate" : false,
            "useFilter" : false,
            "viewMode" : "list"
        },
        "#agenda" : {
            "subdomainName" : "",
            "img" : "/images/coeurNumerique/icon/agenda.svg",
            "nameMenuTop" : "Agenda"
        },
        "#map" : {
            "icon" : "none",
            "inMenu" : true,
            "inMenuLeft" : false,
            "header": "costum.views.custom.coeurNumerique.no-filters",
            "urlExtra" : "/page/map",
            "img" : "/images/coeurNumerique/icon/carto.svg",
            "nameMenuTop" : "Carto",
            "subdomainName" : "",
            "useFilter" : true,
            "useFooter" : false,
            "useHeader" : true,
            "filters" : {
                "types" : [ 
                    "organizations",
                    "events"
                ]
            },
            "searchObject" : {
                "indexStep" : "0"
            }
        }
    },
    "typeObj" : {
        "organization" : {
            "add" : true,
            "dynFormCostum" : {
                "beforeBuild" : {
                    "properties" : {
                        "type" : {
                            "placeholder" : "Type d'organisation",
                            "inputType" : "select",
                            "label" : "Type d'organisation",
                            "labelInformation": "test",
                            "options" : {
                                "NGO" : "Association",
                                "LocalBusiness" : "Entreprise",
                                "GovernmentOrganization" : "Service Public",
                                "Group" : "Autre"
                            }
                        },
                        "category" : {
                            "placeholder" : "Identifiez-vous à un acteur",
                            "inputType" : "select",
                            "label" : "Catégorie d'acteur*",
                            "order" : 5,
                            "labelInformation": "test",
                            "options" : {
                                "Producteur" : "Producteur (développeur, webdesigner, architecte, etc.)",
                                "Formateur" : "Formateur (institut de formation)",
                                "Strategie" : "Institution publique",
                                "Consommateur" : "Consommateur (entreprises, associations)"
                            }
                        }
                    }
                }
            }
        },
        "event":{
            "add":true
        },
        "projects" : {
            "add" : true
        },
        "badge":{
            "add":"onlyAdmin",
            "explainText":"",
            "dynFormCostum" : {
                "beforeBuild" : {
                    "properties" : {
                        "info" : {
                            "inputType" : "custom",
                            "order":1,
                            "html":"<p><i class='fa fa-info-circle'></i> Proposer un badge pour la searchBar</p>"
                        },
                        "category":{
                            "inputType" : "select",
                            "label" : "Catégorie du badge",
                            "order":2,
                            "placeholder" : "Sélectionner une catégorie",
                            "options" : {"domainAction" : "Recherche par "},
                            "rules" : {"required": true}
                        },
                       "parent" : {
                            "inputType" : "finder",
                            "label" : "Ajouter un badge parent",
                            "initMe":false,
                            "placeholder":"Rechercher un badge existant",
                            "rules" : { "required" : false, "lengthMin":[1, "parent"]}, 
                            "initType": ["badges"],
                            "openSearch" :true
                        },
                        "name" : {
                            "label" : "Titre du badge",
                            "order":3,
                            "placeholder" : "Titre du badge"
                        },
                        "icon" : {
                            "order":8
                        },
                        "color" : {
                            "order":9
                        }
                    }
                },
                "onload" : {
                    "actions" : {
                        "setTitle" : "Proposer un badge pour la searchBar",
                        "hide" : {
                            "tagstags":1,
                            "structagstags":1,
                            "icontext":1,
                            "colortext":1
                        },
                        "presetValue":{
                            "tags":{
                                "value":"",
                                "forced":true
                            }
                        }   
                    }
                }
            }
        }
    },
    "lists":{
        "domainAction":{
            "type":"badges",
            "category":"domainAction",
            "sourceKey":true
        }
    }

}
