{
    "welcomeTpl" : "costum.views.custom.templateCostum.home",
    "sourceKey" : true,
    "slug" : "filiereAgricultureEtBiodiversite",
    "favicon" : "/ico/templateCostum/default.ico",
    "metaImg" : "/images/templateCostum/default.png",
    "logo" : "/images/filiereAgricultureEtBiodiversite/logofn.svg",
    "logoMin" : "/images/filiereAgricultureEtBiodiversite/logofn.svg",
    "filters" : {
        "sourceKey" : true
    },
    "js" : {
        "urls" : [
            "../templateCostum/index.js"
        ]
    },
    "htmlConstruct" : {
        "appRendering" : "vertical",
        "redirect" : {
            "logged" : "welcome",
            "unlogged" : "welcome"
        },
        "header" : {
            "menuTop" : {
                "navLeft" : {
                    "logo" : {
                        "height" : 40
                    },
                    "searchBar" : true,
                    "nameMenuTop":{
                        "name" : "Encore un texte ici O.O",
                        "top" : 1.5
                    }
                },
                "navRight" : {
                    "connected" : {
                        "dropdownUser" : {
                            "languages" : false,
                            "statistics" : false,
                            "documentation" : false,
                            "donate" : false,
                            "admin" : true,
                            "settings" : false,
                            "logout" : true
                        },
                        "userProfil" : {
                            "img" : true,
                            "name" : true
                        },
                        "networkFloop" : false,
                        "notifications" : false,
                        "dda" : false,
                        "chat" : false,
                        "home" : false,
                        "app" : true
                    },
                    "disconnected" : {
                        "languages" : false,
                        "login" : true
                    }
                }
            },
            "logo" : "/images/filiereAgricultureEtBiodiversite/logofn.png",
            "bannerImg" : "/images/filiereAgricultureEtBiodiversite/header.jpg"
        },
    "footer" : {
        "url" : "costum.views.custom.templateCostum.footer",
        "html" : {
            "right" : {
                "urls" : [
                    {
                        "img" : "/images/coeurNumerique/logo-region.png",
                        "url" : "https://www.regionreunion.com/"
                    }
                ]
            }
        }
    },
    "directory" : {
        "results" : {
            "organizations" : {
                "defaultImg" : "/images/coeurNumerique/default_directory.png"
            },
            "projects" : {
                "defaultImg" : "/images/coeurNumerique/default_directory.png"
            },
            "events" : {
                "defaultImg" : "/images/coeurNumerique/default_directory.png"
            }
        },
        "footer" : {
            "add" : false
        }
    },
    "element" : {
        "menuLeft" : {
            "detail" : true,
            "gallery" : true,
            "events" : true,
            "projects" : true,
            "community" : true
        },
        "menuTop" : {
            "img" : true,
            "btnGroup" : {
                "imgProfil" : true,
                "nameProfil" : true,
                "newspaper" : false,
                "cospace" : false,
                "chat" : false,
                "create" : false,
                "params" : {
                    "dropdown" : true
                }
            },
            "navRight" : {
                "connected" : {
                    "dropdownUser" : {
                        "languages" : true,
                        "statistics" : false,
                        "documentation" : false,
                        "donate" : false,
                        "admin" : true,
                        "settings" : false,
                        "logout" : true
                    },
                    "userProfil" : {
                        "img" : true
                    },
                    "networkFloop" : false,
                    "notifications" : true,
                    "dda" : false,
                    "chat" : false,
                    "home" : false,
                    "app" : false
                },
                "disconnected" : {
                    "languages" : false,
                    "login" : true,
                    "app" : true
                }
            }
        },
        "intro" : {
            "title" : "Oh mais qui walla-je",
            "left" : {
                "title" : "Carto/Annuaire",
                "paragraphe" : "Dernière costum importé dans la filière, hourra, heureusement j'ai crée un générateur pour sa"
            },
            "right" : {
                "img" : "/images/coeurNumerique/element/carto.png"
            }
        },
        "description" : {
            "left" : {
                "paragraphe" : "HEY TOI, TU VEUX AVOIR DES VBUCK GRATUITEMENT ?! ALORS CLIQUE LES BOUTONS EN HAUT ET REMPLIR LES CHAMPS !!!!"
            },
            "right" : {
                "img" : "/images/filiereAgricultureEtBiodiversite/photo.jpg"
            }
        },
        "actu" : {
            "active" : true,
            "title" : "File d'actualité"
        },
        "agenda" : {
            "active" : true,
            "title" : "Agenda",
            "caroussel" : true
        }
    }
    },
    "css" : {
        "loader" : {
            "background" : "white",
            "ring1" : {
                "color" : "#94c11f",
                "height" : 360,
                "width" : 360,
                "left" : -15,
                "borderWidth" : 4,
                "top" : -35
            },
            "ring2" : {
                "color" : "#c7d301",
                "height" : 350,
                "width" : 350,
                "left" : -10,
                "borderWidth" : 5,
                "top" : -30
            }
        },
        "progress" : {
            "value" : {
                "background" : "#313757"
            },
            "bar" : {
                "background" : "red"
            }
        },
        "menuTop" : {
            "background" : "#e2e2e1",
            "button" : {
                "paddingTop" : 900,
                "fontSize" : 25,
                "color" : "#c8d400"
            },
            "badge" : {
                "background" : "#497614",
                "border" : "100px solid white"
            },
            "scopeBtn" : {
                "display" : "none"
            },
            "filterBtn" : {
                "display" : "none"
            },
            "connectBtn" : {
                "background" : "#c8d400",
                "color" : "white",
                "fontSize" : 18,
                "borderRadius" : 10,
                "padding" : "8px 15px"
            }
        },
        "menuApp" : {
            "top" : "60",
            "background" : "#f6f6f6",
            "button" : {
                "fontSize" : 25,
                "color" : "#41445c",
                "hover" : {
                    "borderBottom" : "2px solid #fff"
                }
            }
        },
        "button" : {
            "footer" : {
                "add" : {
                    "bottom" : 10,
                    "background" : "#c8d400",
                    "color" : "white"
                },
                "toolbarAdds" : {
                    "bottom" : 10
                }
            }
        },
        "urls" : [
            "../templateCostum/index.css"
        ],
        "font":{
            "url" : "/font/coeurNumerique/SharpSansNo1-Medium.ttf"
        },
        "header" : {
            "background" : "#97bf1e"
        },
        "intro" : {
            "color" : "black",
            "background" : "white"
        },
        "description" : {
            "background" : "#97bf1e",
            "color" : "white"
        },
        "actu" : { 
            "color" : "red"
        },
        "agenda" : {
            "background" : "#91a926",
            "color" : "white",
            "card" : {
                "background" : "#91a926",
                "color" : "white"
            }
        },
        "footer" : {
            "background" : "#91a926",
            "color" : "white"
        }
    },
    "app" : {
        "#welcome" : {
            "subdomainName" : "Accueil Fillière Numérique"
        },
        "#annuaire" : {
            "hash" : "#app.search",
            "icon" : "search",
            "urlExtra" : "/page/annuaire",
            "img" : "/images/filiereEnergie/menu/annuaire.svg",
            "nameMenuTop" : "Annuaire",
            "subdomainName" : "",
            "class" : "Annuaire",
            "placeholderMainSearch" : "what are you looking for ?",
            "inMenu":true,
            "useHeader" : false,
            "useFilter" : true,
            "useFooter" : true,
            "filters" : {
                "types" : [ 
                    "organizations",
                    "events",
                    "projects"
                ]
            },
            "searchObject" : {
                "indexStep" : "0"
            }
        },
        "#live" : {
            "subdomainName" : "",
            "class" : "Annuaire",
            "slug" : "filiereEnergie",
            "img" : "/images/filiereEnergie/menu/actus.svg",
            "nameMenuTop" : "Actus",
            "formCreate" : false,
            "useFilter" : false,
            "viewMode" : "list"
        },
        "#agenda" : {
            "subdomainName" : "",
            "class" : "Agenda",
            "img" : "/images/filiereEnergie/menu/agenda.svg",
            "nameMenuTop" : "Agenda"
        },
        "#map" : {
            "icon" : "none",
            "inMenu" : true,
            "urlExtra" : "/page/maps",
            "img" : "/images/filiereEnergie/menu/carto.svg",
            "nameMenuTop" : "Carto",
            "subdomainName" : "",
            "useFilter" : true,
            "useFooter" : false,
            "useHeader" : true,
            "filters" : {
                "types" : [ 
                    "organizations",
                    "events"
                ]
            },
            "searchObject" : {
                "indexStep" : "0"
            }
        }
    },
    "menuBottom" : {
        "add" : true
    },
    "typeObj" : {
        "event":{
            "add":"onlyAdmin"
        }
    }
}