{
    "admin" : {
        "email" : "notr@agora.org"
    },
    "filters" : {
        "sourceKey" : true
    },
    "slug" : "notragora",
    "welcomeTpl" : "costum.views.custom.notragora.home",
    "sourceKey" : true,
    "favicon" : "/ico/notragora/favicon.ico",
    "metaImg" : "/images/notragora/banner.jpg",
    "js" : {
        "urls" : [ 
            "notragora.js",
            "sly.min.js"
            
        ]
    },
    "css" : {
        "urls" : [ 
            "menuTop.css"
        ],
        "loader" : {
            "background" : "white",
            "ring1" : {
                "color" : "#b8d065",
                "height" : 360,
                "width" : 360,
                "left" : -15,
                "borderWidth" : 4,
                "top" : -35
            },
            "ring2" : {
                "color" : "#5c4b3e",
                "height" : 350,
                "width" : 350,
                "left" : -10,
                "borderWidth" : 5,
                "top" : -30
            }
        },
        "progress" : {
            "value" : {
                "background" : "#b8d065"
            },
            "bar" : {
                "background" : "#5c4b3e"
            }
        },
        "menuTop" : {
            "background" : "#ffffff",
            "button" : {
                "paddingTop" : 0,
                "fontSize" : 18,
                "color" : "#c6c6c6"
            },
            "badge" : {
                "background" : "#5b2649",
                "border" : "1px solid white"
            },
            "connectBtn" : {
                "background" : "#b8d065",
                "color" : "white",
                "fontSize" : 13,
                "borderRadius" : 10,
                "padding" : "8px 15px"
            }
        },
        "menuApp" : {
            "background" : "#EA7D24",
            "button" : {
                "color" : "#c6c6c6",
                "hover" : {
                    "background" : "#c6c6c6"
                }
            }
        },
        "button" : {
            "footer" : {
                "add" : {
                    "bottom" : 25,
                    "background" : "#EA7D24",
                    "color" : "white"
                },
                "toolbarAdds" : {
                    "bottom" : 30
                }
            }
        },
        "color" : {
            "purple" : "#213533"
        }
    },
    "htmlConstruct" : {
        "appRendering" : "horizontal",
        "element" : {
            "urlTpl" : {
                "poi" : {
                    "default" : "costum.views.custom.notragora.production"
                },
                "organizations" : {
                    "default" : "costum.views.custom.notragora.element"
                },
                "citoyens" : {
                    "default" : "costum.views.custom.notragora.element"
                }
            },
            "js" : "pageProfil.js",
            "css" : "pageProfil.css",
            "initView" : "newspaper",
            "containerClass" : {
                "menuTop" : true,
                "menuTopImage" : true,
                "menuTopGroupBtn" : true,
                "menuLeft" : "hidden",
                "centralSection" : "col-xs-12",
                "centralSectionSub" : "col-xs-12 col-md-10 col-md-offset-1 col-lg-10 col-lg-offset-1 shadow2"
            },
            "menuLeft" : false,
            "menuTop" : {
                "img" : true,
                "btnGroup" : {
                    "newspaper" : {
                        "label" : "Newspaper",
                        "icon" : "rss",
                        "class" : "ssmla pull-left",
                        "view" : "newspaper"
                    },
                    "detail" : {
                        "label" : "A Propos",
                        "icon" : "home",
                        "view" : "detail",
                        "class" : "ssmla pull-left"
                    },
                    "community" : {
                        "label" : "Community",
                        "icon" : "users",
                        "class" : "ssmla pull-left",
                        "view" : "community",
                        "dataAttr" : {
                            "icon" : "users"
                        }
                    },
                    "pois":{
                        "label":"Productions",
                        "icon":"video-camera",
                        "class":"ssmla pull-left",
                        "view":"directory",
                        "dataAttr":{
                            "dir":"poi",
                            "icon":"video-camera"
                        }
                    },
                    "create":{
                        "label":"",
                        "icon":"plus-circle fa-2x", 
                        "class":"letter-green hidden-xs",
                        "action":"create",
                        "edit":true
                    }
                }
            }
        },
        "add" : [ 
            "organization", 
            "poi"
        ],
        "subMenu" : {
            "url" : "costum.views.custom.notragora.menuLeft"
        },
        "header" : {
            "searchTypeHtml" : true,
            "banner" : "costum.views.custom.notragora.banner",
            "menuTop" : {
                "navLeft" : {
                    "logo" : {
                        "height" : 40
                    },
                    
                    "useFilter" : {
                        "scopeFilter" : false,
                        "showFilter" : false
                    },
                    "app" : {
                        "paddingLeft" : "30px",
                        "button" : {
                            "fontSize" : 18,
                            "fontWeight" : 800,
                            "paddingBottom" : "0px",
                            "marginLeft" : "10px",
                            "textTransform" : "uppercase",
                            "color" : "#c6c6c6"
                        }
                    }
                },
                "navRight" : {
                    "searchBar" : {
                        "classes" : "hidden-xs col-sm-4 col-md-4 pull-right"
                    },
                    "connected" : {
                        "dropdownUser" : {
                            "languages" : true,
                            "statistics" : false,
                            "documentation" : false,
                            "donate" : false,
                            "admin" : true,
                            "settings" : false,
                            "logout" : true
                        },
                        "userProfil" : {
                            "img" : true,
                            "name" : false
                        },
                        "networkFloop" : true,
                        "notifications" : true,
                        "dda" : false,
                        "chat" : false,
                        "home" : false,
                        "app" : false
                    },
                    "disconnected" : {
                        "languages" : true,
                        "login" : true
                    }
                }
            }
        },
        "menuLeft" : {
            "add" : false
        },
        "menuBottom" : {
            "add" : false,
            "donate" : false
        },
        "adminPanel" : {
            "js":true,
            "add" : true,
            "menu":{
                "statistic" : true,
                "directory" : true,
                "community" : {"show":true},
                "groupe" : {
                    "label" : "Groupes locaux",
                    "class" : "text-dark",
                    "view":"group",
                    "icon" : "group"
                },
                "reference" : {
                    "show":true,
                    "initType" : [ 
                        "organizations"
                    ]
                }
            }
        },
        "directoryViewMode" : "block",
        "directory" : {
            "header" : {
                "class" : "col-xs-12 ",
                "map" : true,
                "viewMode" : false
            },
            "footer" : {
            },
            "body" : {
                "class" : "col-xs-12 "
            }
        },
        "footer" : {
            "url" : "costum.views.custom.notragora.footer"
        },
        "redirect" : {
            "logged" : "welcome",
            "unlogged" : "welcome"
        }
    },
    "app" : {
        "#search" : {
            "icon" : "group",
            "subdomainName" : "",
            "placeholderMainSearch" : "Repertoire",
            "useFilter" : false,
            "filters" : {
                "types" : [ 
                    "organizations"
                ]
            }
        },
        "#production" : {
            "hash" : "#app.search",
            "inMenu" : true,
            "urlExtra" : "/page/production",
            "icon" : "video-camera",
            "subdomainName" : "",
            "placeholderMainSearch" : "Production",
            "useFilter" : false,
            "filters" : {
                "types" : [ 
                    "poi"
                ]
            }
        },
        "#map" : {
            "inMenu" : true,
            "icon" : "map",
            "subdomainName" : "",
            "mainTitle" : "Carte de NotrAgora",
            "placeholderMainSearch" : "Carte de NotrAgora",
            "filtres" : {
                "types" : ["organizations", "poi"],
                "limit" : 0
            }
        },
        "#apropos" : {
            "hash" : "#app.view",
            "icon" : "star",
            "urlExtra" : "/page/apropos/url/costum.views.custom.notragora.apropos",
            "useHeader" : true,
            "useFilter" : false,
            "inMenu" : true,
            "subdomainName" : "",
            "placeholderMainSearch" : "A Propos"
        }
    },
    "typeObj" : {
        "organization" : {
            "add" : true,
            "dynFormCostum" : {
                "beforeBuild" : {
                    "properties" : {
                        "tags" : {
                            "inputType" : "tags",
                            "placeholder" : "Ajouter des tags",
                            "values" : null,
                            "label" : "Ajouter des tags",
                            "group" : null,
                            "minimumInputLength" : 0,
                            "order" : 7
                        }
                    }
                },
                "onload" : {
                    "actions" : {
                        "presetValue" : {
                            "type" : "NGO"
                        },
                        "hide" : {
                            "typeselect" : 1,
                            "urltext" : 1,
                            "emailtext" : 1,
                            "shortDescriptiontextarea" : 1,
                            "categoryselect" : 1,
                            "tags1tags" : 1,
                            "tags2tags" : 1
                        }
                    }
                }
            }
        },
        "poi" : {
            "createLabel" : "Ajouter une production",
            "add" : false,
            "dynFormCostum" : {
                "beforeBuild" : {
                    "properties" : {
                        "tags1" : {
                            "inputType" : "tags",
                            "label" : "Collections",
                            "placeholder" : "Choisir une collection",
                            "minimumInputLength" : 0,
                            "tagsList" : "collections",
                            "order" : 7
                        },
                        "tags2" : {
                            "inputType" : "tags",
                            "label" : "Genres",
                            "placeholder" : "Choisir un genre",
                            "minimumInputLength" : 0,
                            "tagsList" : "genres",
                            "order" : 8
                        },
                        "tags" : {
                            "inputType" : "tags",
                            "placeholder" : "Ajouter des tags",
                            "values" : null,
                            "label" : "Ajouter des tags",
                            "group" : null,
                            "minimumInputLength" : 0,
                            "order" : 9
                        }
                    }
                },
                "onload" : {
                    "actions" : {
                        "presetValue" : {
                            "type" : "video"
                        },
                        "hide" : {
                            "breadcrumbcustom" : 1,
                            "imageuploader" : 1,
                            "urlsarrayBtn" : 1
                        }
                    }
                }
            }
        }
    },
    "json" : {
        "collections" : "collections",
        "genres" : "genres"
    },
    "dynForm" : {
        "extra" : {
            "tags" : {},
            "tags1" : { 
                "list" : "collections",
                "placeholder" : "Ajouter une Géographique"
            },
            "tags2" : {
                "list" : "genres",
                "placeholder" : "Ajouter une Structures"
            }
        }
    }
}