{
    "slug" : "OpenAtlas",
    "welcomeTpl" : "costum.views.custom.OpenAtlas.home",
    "sourceKey" : true,
    "favicon" : "/images/OpenAtlas/logo-openatlas.png",
    "metaImg" : "/images/OpenAtlas/logo-openatlas.png",
    "logoMin" : "/images/OpenAtlas/logo-openatlas.png",
    "logo" : "/images/OpenAtlas/logo-openatlas.png",
    "colors" : {
        "green" : "#9ec72d",
        "grey" : "#f6f6f6",
        "dark" : "#354C57",
        "blue" : "#18bce2",
        "pink" : "#E4394D"
    },
    "js" : {
        "urls" : [ 
            "index.js"
        ]
    },
    "css" : {
        "loader" : {
            "background" : "white",
            "ring1" : {
                "color" : "this.colors.pink",
                "height" : 360,
                "width" : 360,
                "left" : -15,
                "borderWidth" : 4,
                "top" : -35
            },
            "ring2" : {
                "color" : "this.colors.dark",
                "height" : 350,
                "width" : 350,
                "left" : -10,
                "borderWidth" : 5,
                "top" : -30
            }
        },
        "progress" : {
            "value" : {
                "background" : "this.colors.pink"
            },
            "bar" : {
                "background" : "#fff"
            }
        },
        "menuTop" : {
            "background" : "white",
            "button" : {
                "paddingTop" : 1,
                "fontSize" : 25,
                "color" : "black"
            },
            "badge" : {
                "display" : "none"
            },
            "scopeBtn" : {
                "display" : "none"
            },
            "filterBtn" : {
                "display" : "none"
            },
            "connectBtn" : {
                "background" : "#5b2649",
                "color" : "white",
                "fontSize" : 13,
                "borderRadius" : 10,
                "padding" : "8px 15px"
            }
        },
        "menuApp" : {
            "background" : "white",
            "fontSize" : 15,
            "button" : {
                "color" : "#213533",
                "hover" : {
                    "background" : "#FFF"
                }
            }
        },
        "button" : {
            "footer" : {
                "add" : {
                    "bottom" : 25,
                    "background" : "transparent",
                    "color" : "green"
                },
                "toolbarAdds" : {
                    "bottom" : 30
                }
            }
        },
        "color" : {
            "purple" : "this.colors.pink"
        }
    },
    "htmlConstruct" : {
        "appRendering" : "vertical",
        "header" : {
            "menuTop" : {
                "navLeft" : {
                    "logo" : {
                        "height" : 40
                    },
                    "searchBar" : true,
                    "useFilter" : {
                        "scopeFilter" : false,
                        "showFilter" : false
                    }
                },
                "navRight" : {
                    "connected" : {
                        "dropdownUser" : {
                            "languages" : true,
                            "statistics" : false,
                            "documentation" : false,
                            "donate" : false,
                            "admin" : true,
                            "settings" : true,
                            "logout" : true
                        },
                        "userProfil" : {
                            "img" : true
                        },
                        "networkFloop" : false,
                        "notifications" : true,
                        "dda" : false,
                        "chat" : true,
                        "home" : true,
                        "app" : false
                    },
                    "disconnected" : {
                        "languages" : true,
                        "login" : true
                    }
                }
            }
        },
        "footer" : {
            "add" : true,
            "donation" : true
        },
        "adminPanel" : {
            "add" : false,
            "statistic" : true,
            "directory" : true,
            "community":{"show":true},
            "reference" : {"show":true}
        },
        "element" : {
            "initView" : "detail",
            "menuLeft" : {
                "detail" : true,
                "community" : true,
                "gallery" : true,
                "events" : true,
                "projects" : true,
                "ressources" : true,
                "classifieds" : true,
                "jobs" : true
            },
            "menuTop" : {
                "img" : true,
                "btnGroup" : {
                    "imgProfil":true,
                    "nameProfil":true,
                    "newspaper" : true,
                    "cospace":true,
                    "chat":true,
                    "create":true,
                    "params" : {
                        "dropdown":{
                            "history" : true,
                            "settings" : true,
                            "mindmap" : true,
                            "editSlug" : true,
                            "delete" : true
                        }
                    }
                }
            }
        },
        "redirect" : {
            "logged" : "welcome",
            "unlogged" : "welcome"
        }
    },
    "app" : {
        "#citoyens" : {
            "hash" : "#app.search",
            "urlExtra" : "/page/citoyens", 
            "subdomainName" : "",
            "icon" : "",
            "placeholderMainSearch" : "Tous les citoyens",
            "useHeader" : false,
            "useFilter" : false,
            "useFooter" : true,
            "filters" : {
                "types" :[
                    "citoyens"
                ]
            }, 
            "searchObject" : {
                "indexStep" : "0",
                "links" : [
                    "memberOf"
                ]
            }
        },
        "#search" : {
            "icon" : "search",
            "subdomainName" : "Les amis du COEUR"
        },
        "#live" : {
            "subdomainName" : "Actualité",
            "slug" : "OpenAtlas",
            "formCreate" : false,
            "useFilter" : false
        },
        "#agenda" : {
            "subdomainName" : "Agenda",
            "placeholderMainSearch" : "what are you looking for ?"
        },
        "#annonces" : {
            "subdomainName" : "Petites annonces",
            "icon" : "bullhorn"
        },
        "#dda" : {
            "subdomainName" : "Votez les CO devellopements "
        }
    }
}