{
    "slug" : "pactePourLaTransition",
    "redirect" : "siteDuPactePourLaTransition",
    "welcomeTpl" : "costum.views.custom.home.pactePourLaTransition",
    "sourceKey" : true,
    "favicon" : "/ico/pactePourLaTransition/favicon.ico",
    "metaImg" : "/images/pactePourLaTransition/banner_ctc.png",
    "logoMin" : "/images/pactePourLaTransition/logo-min.png",
    "css" : {
        "font" : {
            "url" : "/font/pactePourLaTransition/fengardoneue_regular-webfont.ttf"
        },
        "loader" : {
            "background" : "white",
            "ring1" : {
                "color" : "#5b2649",
                "height" : 360,
                "width" : 360,
                "left" : -15,
                "borderWidth" : 4,
                "top" : -35
            },
            "ring2" : {
                "color" : "#fea621",
                "height" : 350,
                "width" : 350,
                "left" : -10,
                "borderWidth" : 5,
                "top" : -30
            }
        },
        "progress" : {
            "value" : {
                "background" : "#5b2649"
            },
            "bar" : {
                "background" : "#fff"
            }
        },
        "menuTop" : {
            "background" : "white",
            "button" : {
                "paddingTop" : 0,
                "fontSize" : 30,
                "color" : "#5b2649"
            },
            "scopeBtn" : {
                "color" : "#5b2649"
            },
            "filterBtn" : {
                "color" : "#5b2649"
            },
            "badge" : {
                "background" : "#5b2649",
                "border" : "1px solid white"
            },
            "connectBtn" : {
                "background" : "#5b2649",
                "color" : "white",
                "fontSize" : 18,
                "borderRadius" : 10,
                "padding" : "8px 15px"
            }
        },
        "menuApp" : {
            "background" : "#5b2649",
            "button" : {
                "fontSize" : 25,
                "color" : "#fff",
                "hover" : {
                    "borderBottom" : "2px solid #fff"
                }
            }
        },
        "button" : {
            "footer" : {
                "add" : {
                    "bottom" : 25,
                    "background" : "transparent",
                    "color" : "white"
                },
                "toolbarAdds" : {
                    "bottom" : 30
                }
            }
        },
        "color" : {
            "purple" : "#5b2649"
        }
    },
    "htmlConstruct" : {
        "appRendering" : "vertical",
        "header" : {
            "menuTop" : {
                "navLeft" : {
                    "logo" : {
                        "height" : 70
                    },
                    "searchBar" : true,
                    "useFilter" : {
                        "scopeFilter" : true,
                        "showFilter" : true
                    }
                },
                "navRight" : {
                    "connected" : {
                        "dropdownUser" : {
                            "languages" : true,
                            "statistics" : false,
                            "documentation" : false,
                            "donate" : false,
                            "admin" : true,
                            "settings" : false,
                            "logout" : true
                        },
                        "userProfil" : {
                            "img" : true
                        },
                        "networkFloop" : true,
                        "notifications" : true,
                        "dda" : false,
                        "chat" : true,
                        "home" : false,
                        "app" : false
                    },
                    "disconnected" : {
                        "languages" : true,
                        "login" : true
                    }
                }
            }
        },
        "subMenu" : {
            "fontSize" : 40,
            "app" : true,
            "button" : true
        },
        "menuBottom" : {
            "add" : false,
            "donate" : false
        },
        "adminPanel" : {
            "add" : true,
            "statistic" : true,
            "directory" : true,
            "community" : true,
            "reference" : {
                "initType" : [ 
                    "organizations"
                ]
            }
        },
        "directoryViewMode" : "block",
        "directory" : {
            "header" : {
                "map" : false,
                "viewMode" : false,
                "add" : {
                    "proposals" : true
                }
            },
            "results" : {
                "proposals" : {
                    "defaultImg" : "/images/pactePourLaTransition/default_directory.png"
                }
            },
            "footer" : {
                "add" : {
                    "proposals" : true
                }
            }
        },
        "element" : {
            "initView" : "detail",
            "menuLeft" : {
                "detail" : true,
                "gallery" : true,
                "community" : true
            },
            "menuTop" : {
                "news" : true,
                "params" : {
                    "history" : true,
                    "slug" : true,
                    "delete" : true
                }
            }
        },
        "redirect" : {
            "logged" : "welcome",
            "unlogged" : "welcome"
        }
    },
    "filters" : {
        "sourceKey" : true,
        "searchTypeGS" : [ 
            "proposals"
        ]
    },
    "app" : {
        "#dda" : {
            "subdomainName" : "Je contribue",
            "placeholderMainSearch" : "what are you looking for ?"
        },
        "#search" : {
            "icon" : "group",
            "subdomainName" : "Organisations partenaires",
            "placeholderMainSearch" : "what are you looking for ?",
            "filters" : {
                "types" : [ 
                    "NGO", 
                    "Group", 
                    "GovernmentOrganization", 
                    "LocalBusiness"
                ]
            }
        },
        "#live" : {
            "subdomainName" : "Transition en live",
            "placeholderMainSearch" : "what are you looking for ?",
            "slug" : "pactePourLaTransition",
            "formCreate" : false,
            "useFilter" : false
        }
    },
    "searchOpenMenu" : {
        "url" : "#dda",
        "msg" : "Toutes les mesures"
    },
    "typeObj" : {
        "organizations" : {
            "add" : true
        },
        "proposals" : {
            "add" : "true",
            "color" : "purple",
            "name" : "Mesure",
            "createLabel" : "Ajouter une mesure",
            "dynFormCostum" : {
                "onload" : {
                    "actions" : {
                        "formatAmendVote" : 1,
                        "adminOnly" : {
                            "producerfinder" : 1
                        },
                        "setTitle" : "Ajouter une mesure",
                        "html" : {
                            "titletext>label" : "Enoncé de la mesure",
                            "infocustom" : "<br/>Le Pacte pour la Transition traite des politiques locales. Assurez-vous que les mesures que vous proposez puissent être mises en oeuvre par les communes et intercommunalités."
                        },
                        "presetValue" : {
                            "voteDateEnd" : "28/02/2019 23:59"
                        },
                        "hide" : {
                            "voteDateEnddatetime" : 1,
                            "urlsarray" : 1
                        }
                    }
                }
            }
        },
        "citoyens" : {
            "add" : true
        }
    }
}


