{
    "welcomeTpl" : "costum.views.custom.smarterre.home",
    "sourceKey" : true,
    "slug" : "smarterre",
    "favicon" : "/images/smarterre/Logosmarterre.png",
    "profilImageUrl" : "/images/smarterre/Logosmarterre.png",
    "metaImg" : "/images/smarterre/Logosmarterre.png",
    "typeObj" : {
        "organizations" : {
            "add" : true
        },
        "projects" : {
            "add" : true
        }
    },
    "logoMin" : "/images/smarterre/Logosmarterre.png",
    "logo" : "/images/smarterre/Logosmarterre.png",
    "js" : {
        "urls" : [ 
            "vivus.min.js",
            "animator.js",
            "link.js",
            "disablescroll.js",
            "addsentence.js",
            "change_description.js",
            "index.js"
        ]
    },
    "filters" : {
        "searchTypeGS" : [
            "organizations",
            "citoyens",
            "projects",
            "events",
            "bookmarks" 
        ],
        "sourceKey" : true
    },
    "css" : {
        "urls" : [
            "index.css"
        ],
        "font" : {
            "url" : "/font/smarterre/FuturaBookfont.ttf"
        },
        "loader" : {
            "background" : "white",
            "ring1" : {
                "color" : "red",
                "height" : 360,
                "width" : 360,
                "left" : -15,
                "borderWidth" : 4,
                "top" : -35
            },
            "ring2" : {
                "color" : "#80cc28",
                "height" : 350,
                "width" : 350,
                "left" : -10,
                "borderWidth" : 5,
                "top" : -30
            }
        },
        "progress" : {
            "value" : {
                "background" : "#1f1aca"
            },
            "bar" : {
                "background" : "#fff"
            }
        },
        "menuTop" : {
            "background" : "rgba(0,0,0,.6)",
            "button" : {
                "paddingTop" : 900,
                "fontSize" : 18,
                "color" : "white"
            },
            "badge" : {
                "display" : "none"
            },
            "scopeBtn" : {
                "display" : "none"
            },
            "filterBtn" : {
                "display" : "none"
            },
            "connectBtn" : {
                "background" : "#5b2649",
                "color" : "white",
                "fontSize" : 13,
                "borderRadius" : 10,
                "padding" : "8px 15px"
            }
        },
        "menuApp" : {
            "top" : "50",
            "background" : "white",
            "button" : {
                "fontSize" : 25,
                "color" : "black",
                "hover" : {
                    "borderBottom" : "2px solid #fff"
                }
            }
        },
        "button" : {
            "footer" : {
                "add" : {
                    "bottom" : 25,
                    "background" : "white",
                    "color" : "black"
                },
                "toolbarAdds" : {
                    "bottom" : 30
                }
            }
        },
        "color" : {
            "green": "#95C11F",
            "turquoise": "#00B2BB"
        }
    },
    "htmlConstruct" : {
        "appRendering" : "vertical",
        "redirect" : {
            "logged" : "welcome",
            "unlogged" : "welcome"
        },
        "adminPanel" : {
            "add" : true,
            "menu":{
                "statistic" : false,
                "directory" : false,
                "reference" : {
                    "initType" : [ 
                        "organizations"
                    ]
                }
            }
        },
        "add" : [
            "organization", 
            "projects"
        ],
        "header" : {
            "menuTop" : {
                "navLeft" : {
                    "logo" : {
                        "height" :40
                    },
                    "searchBar" : false,
                    "useFilter" : {
                        "dropdownResult" : true,
                        "scopeFilter" : true,
                        "showFilter" : true
                    },
                    "app" : {
                        "paddingLeft" : "90px",
                        "img" : true,
                        "class" : "text-right col-xs-9 col-lg-9 navigator hidden-xs"
                    }
                },
                "navRight" : {
                    "connected" : {
                        "dropdownUser" : {
                            "languages" : false,
                            "statistics" : false,
                            "documentation" : false,
                            "donate" : false,
                            "admin" : false,
                            "settings" : true,
                            "logout" : true
                        },
                        "userProfil" : {
                            "img" : true,
                            "name" : true
                        },
                        "networkFloop" : false,
                        "notifications" : false,
                        "dda" : false,
                        "chat" : false,
                        "home" : false,
                        "app" : false
                    },
                    "disconnected" : {
                        "languages" : false,
                        "login" : true
                    }
                }
            }
        },
        "directory" : {
            "results" : {
                "organizations" : {
                    "defaultImg" : "/images/lesPepitesEss/default_directory.png"
                },
                "projects" : {
                    "defaultImg" : "/images/lesPepitesEss/default_directory.png"
                },
                "events" : {
                    "defaultImg" : "/images/lesPepitesEss/default_directory.png"
                }
            },
            "footer" : {
                "add" : true,
                "donation" : false
            }
        },
        "footer" : {
                "url" : "costum.views.custom.smarterre.footer"
        },
        "element" : {
            "initView" : "detail",
            "menuLeft" : {
                "detail" : true,
                "gallery" : true,
                  "events" : true,
                "projects" : true,
                "community" : true
            },
            "menuTop" : {
                "img" : true,
                "btnGroup" : {
                    "imgProfil":true,
                    "nameProfil":false,
                    "newspaper" : false,
                    "cospace":false,
                    "chat":false,
                    "create":false,
                    "params" : {
                        "dropdown":{
                            "history" : true,
                            "settings" : true,
                            "mindMap" : true,
                            "editSlug" : true,
                            "delete" : true
                        }
                    }
                }   
            }
        },
        "menuBottom" : {
            "add" : true
        }
    },
    "lists":{
        "domainAction":{
            "type":"badges",
            "sourceType":"domainAction",
            "sourceKey":true,
            "sourceType": "smarterritoire"
        }
    },
    "app" : {
        "#smarterritoire": {
            "hash" : "#app.search",
            "header": "costum.views.custom.smarterre.filters",
            "icon" : "map-marker",
            "urlExtra" : "/page/smarterritoire",
            "subdomainName" : "Smarterritoire",
            "inMenu":true,
            "inMenuTop" : false,
            "inMenuleft" : true,
            "useFilter" : false,
            "useFooter" : true,
            "filters" : {
                "types" : [ 
                    "organizations",
                    "projects"
                ]
            },
            "searchObject" : {
                "indexStep" : "0"
            }
        },
        "#porteurs" : {
            "hash" : "#app.view",
            "subdomainName" : "porteurs",
            "icon" : "",
            "urlExtra" : "/page/smarterre/url/costum.views.custom.smarterre.porteurs",
            "inMenu" : false,
            "viewMode" : "list",
            "placeholderMainSearch" : "Porteurs",
            "useFilter" : false
        },
        "#mentions" : {
            "hash" : "#app.view",
            "subdomainName" : "",
            "icon" : "",
            "urlExtra" : "/page/smarterre/url/costum.views.custom.smarterre.mentions",
            "inMenu" : false,
            "viewMode" : "list",
            "placeholderMainSearch" : "Mentions légales",
            "useFilter" : false
        },
        "#search" : {
            "hash" : "#app.search",
            "urlExtra" : "/page/search",
            "subdomainName" : "Recherche",
            "placeholderMainSearch" : "what are you looking for ?",
            "inMenu":true,
            "inMenuTop" : false,
            "useHeader" : false,
            "useFilter" : true,
            "useFooter" : true,
            "inMenuLeft" : true,
            "filters" : {
                "types" : [ 
                    "organizations",
                    "events",
                    "projects"
                ]
            },
            "searchObject" : {
                "indexStep" : "0"
            }
        },
        "#live" : {
            "subdomainName" : "Actualités",
            "slug" : "smarterre",
            "formCreate" : false,
            "useFilter" : false,
            "viewMode" : "list",
            "inMenuTop" : false,
            "inMenuLeft" : true
        },
        "#agenda" : {
            "subdomainName" : "Agenda",
            "inMenuTop" : false,
            "inMenuLeft" : true
        },
        "#smarterre": {
            "hash" : "#app.view",
            "icon" : "",
            "urlExtra" : "/page/smarterre/url/costum.views.custom.smarterre.smarterre",
            "subdomainName" : "",
            "useHeader": false,
            "useFooter" : true,
            "useFilter" : false,
            "inMenu" : false
        },
        "#education": {
            "hash" : "#app.view",
            "icon" : "none",
            "urlExtra" : "/page/smarterre/url/costum.views.custom.smarterre.education",
            "img" : "/images/smarterre/icones/education.svg",
            "subdomainName" : "",
            "nameMenuTop" : "Education",
            "inMenuTop" : true,
            "inMenuLeft" : false,
            "useHeader":false,
            "useFooter" : true,
            "useFilter" : false,
            "inMenu" : true,
            "dropdownResult":true
        },
        "#commun": {
            "hash" : "#app.view",
            "icon" : "none",
            "urlExtra" : "/page/smarterre/url/costum.views.custom.smarterre.commun",
            "img" : "/images/smarterre/icones/commun.svg",
            "subdomainName" : "",
            "nameMenuTop" : "Commun",
            "inMenuTop" : true,
            "inMenuLeft" : false,
            "useHeader": true,
            "useFooter" : true,
            "useFilter" : false,
            "inMenu" : true
        },
        "#citoyennete": {
            "hash" : "#app.view",
            "icon" : "",
            "urlExtra" : "/page/smarterre/url/costum.views.custom.smarterre.citoyennete",
            "img" : "/images/smarterre/icones/citoy.svg",
            "subdomainName" : "",
            "nameMenuTop" : "Citoyennete",
            "inMenuTop" : true,
            "inMenuLeft" : false,
            "useHeader": false,
            "useFooter" : true,
            "useFilter" : false,
            "inMenu" : true
        },
        "#sante": {
            "hash" : "#app.view",
            "icon" : "none",
            "urlExtra" : "/page/smarterre/url/costum.views.custom.smarterre.sante",
            "img" : "/images/smarterre/icones/alimentation.svg",
            "subdomainName" : "",
            "nameMenuTop" : "Santé",
            "inMenuTop" : true,
            "inMenuLeft" : false,
            "useHeader": true,
            "useFooter" : true,
            "useFilter" : false,
            "inMenu" : true
        },
        "#transport": {
            "hash" : "#app.view",
            "icon" : "none",
            "urlExtra" : "/page/smarterre/url/costum.views.custom.smarterre.transport",
            "img" : "/images/smarterre/icones/energie.svg",
            "subdomainName" : "",
            "nameMenuTop" : "Energie",
            "inMenuTop" : true,
            "inMenuLeft" : false,
            "useHeader": false,
            "useFooter" : true,
            "useFilter" : false,
            "inMenu" : true
        },
        "#dechets": {
            "hash" : "#app.view",
            "icon" : "none",
            "urlExtra" : "/page/smarterre/url/costum.views.custom.smarterre.dechets",
            "img" : "/images/smarterre/icones/Dechets.svg",
            "subdomainName" : "",
            "nameMenuTop" : "Déchets",
            "inMenuTop" : true,
            "inMenuLeft" : false,
            "useHeader": false,
            "useFooter" : true,
            "useFilter" : false,
            "inMenu" : true
        },
        "#construction": {
            "hash" : "#app.view",
            "icon" : "none",
            "urlExtra" : "/page/smarterre/url/costum.views.custom.smarterre.construction",
            "img" : "/images/smarterre/icones/Construction.svg",
            "subdomainName" : "",
            "nameMenuTop" : "Construction",
            "inMenuTop" : true,
            "inMenuLeft" : false,
            "useHeader": false,
            "useFooter" : true,
            "useFilter" : false,
            "inMenu" : true
        },
        "#economie": {
            "hash" : "#app.view",
            "icon" : "none",
            "urlExtra" : "/page/smarterre/url/costum.views.custom.smarterre.economie",
            "img" : "/images/smarterre/icones/economie.svg",
            "subdomainName" : "",
            "nameMenuTop" : "Economie",
            "inMenuTop" : true,
            "inMenuLeft" : false,
            "useHeader": false,
            "useFooter" : true,
            "useFilter" : false,
            "inMenu" : true
        }
    },
    "themes" : {
        "commun": {
            "element" : 
            [
                { 
                    "id" : 1,
                    "img" : "/images/smarterre/commun/Naturel.jpeg"
                },
                {
                    "id" : 2,
                    "img" : "/images/smarterre/commun/Materiel.jpeg"
                },
                {
                    "id" : 3,
                    "img" : "/images/smarterre/commun/Immateriel.jpeg"
                },
                {
                    "id" : 4,
                    "img" : "/images/smarterre/commun/Communaute.jpeg"
                },
                {
                    "id" : 5,
                    "img" : "/images/smarterre/commun/Gauvernance.jpg"
                },
                {
                    "id" : 6,
                    "img" : "/images/smarterre/commun/Economie.jpg"
                },
                {
                    "id" : 7,
                    "img" : "/images/smarterre/commun/participer.jpeg"
                }
            ]
        },
        "dechets" : {
            "element" : [ 
                {
                    "id" : 1,
                    "img" : "/images/smarterre/dechets/action_perso.jpeg"
                },
                {
                    "id" : 2,
                    "img" : "/images/smarterre/dechets/plateforme.jpeg"
                },
                {
                    "id" : 3,
                    "img" : "/images/smarterre/dechets/generateur_demploi.jpeg"
                },
                {
                    "id" : 4,
                    "img" : "/images/smarterre/dechets/alimentation.jpeg"
                },
                {
                    "id" : 5,
                    "img" : "/images/smarterre/dechets/education.jpeg"
                },
                {
                    "id" : 6,
                    "img" : "/images/smarterre/dechets/valorisation.jpeg"
                },
                {
                    "id" : 7,
                    "img" : "/images/smarterre/dechets/eviter_le_gaspillage.jpeg"
                },
                {
                    "id" : 8,
                    "img" : "/images/smarterre/dechets/encouragement.jpeg"
                }
            ]
        },
        "education" : {
            "element" : 
            [ 
                { 
                    "id" : 1,
                    "img" : "/images/smarterre/education/FirstImg.jpg"
            },
            {
                    "id" : 2,
                    "img" : "/images/smarterre/education/NewMeth.jpg"
            },
            {
                    "id" : 3,
                    "img" : "/images/smarterre/education/MiseEnApp.jpg"
            },
            {
                    "id" : 4,
                    "img" : "/images/smarterre/education/Attention.jpg"
            },
            {
                    "id" : 5,
                    "img" : "/images/smarterre/education/Outils.jpg"
            }
            ]
        },
        "sante" : {
            "element" : 
            [ 
                    { 
                        "id" : 1,
                        "img" : "/images/smarterre/sante/alimentation.jpg"
                    },
                    {
                        "id" : 2,
                        "img" : "/images/smarterre/sante/BienEtre.jpg"
                    },
                    {
                        "id" : 3,
                        "img" : "/images/smarterre/sante/education.jpg"
                    },
                    {
                        "id" : 4,
                        "img" : "/images/smarterre/sante/produire.jpg"
                    },
                    {
                        "id" : 5,
                        "img" : "/images/smarterre/sante/sante.jpg"
                    },
                    {
                        "id" : 6,
                        "img" : "/images/smarterre/sante/consomme.jpg"
                    },
                    {
                    "id" : 7,
                    "img" : "/images/smarterre/sante/MainHomme.jpg"
                    },
                    {
                    "id" : 8,
                    "img" : "/images/smarterre/sante/plante.jpg"
                    },
                    {
                    "id" : 9,
                    "img" : "/images/smarterre/sante/attention.jpg"
                    }
            ]   
        },
        "citoyennete" : {
            "element" : 
            [
                    { 
                        "id" : 1,
                        "img" : "/images/smarterre/citoyennete/engage.jpeg"
                    },
                    {
                        "id" : 2,
                        "img" : "/images/smarterre/citoyennete/connecte.jpeg"
                    },
                    {
                        "id" : 3,
                        "img" : "/images/smarterre/citoyennete/responsable.jpeg"
                    },
                    {
                        "id" : 4,
                        "img" : "/images/smarterre/citoyennete/democratie.jpeg"
                    },
                    {
                        "id" : 5,
                        "img" : "/images/smarterre/citoyennete/justice.jpeg"
                    },
                    {
                        "id" : 6,
                        "img" : "/images/smarterre/citoyennete/ecolecitoyen.jpeg"
                    },
                    {
                        "id" : 7,
                        "img" : "/images/smarterre/citoyennete/experimenter.jpeg"
                    },
                    {
                        "id" : 8,
                        "img" : "/images/smarterre/citoyennete/Outils.jpeg"
                    },
                    {
                        "id" : 9,
                        "img" : "/images/smarterre/citoyennete/Attention.jpeg"
                    }
            ]
        },

            "economie" : {
                "element" : [
                        { 
                            "id" : 1,
                            "img" : "/images/smarterre/economie/focus.jpeg"
                        },
                        {
                            "id" : 2,
                            "img" : "/images/smarterre/economie/commun.jpg"
                        },
                        {
                            "id" : 3,
                            "img" : "/images/smarterre/economie/repenser_travail.jpeg"
                        },
                        {
                            "id" : 4,
                            "img" : "/images/smarterre/economie/economie_respectueuse.jpeg"
                        },
                        {
                            "id" : 5,
                            "img" : "/images/smarterre/economie/ressource.jpeg"
                        },
                        {
                            "id" : 6,
                            "img" : "/images/smarterre/economie/gouvernement.jpg"
                        },
                        {
                            "id" : 7,
                            "img" : "/images/smarterre/economie/education.jpg"
                        }
                ]
            },

            "transport" : {
                "element" : [
                    { 
                        "id" : 1,
                        "img" : "/images/smarterre/transport_energie/covoiturage.jpg"
                    },
                    {
                        "id" : 2,
                        "img" : "/images/smarterre/transport_energie/commun.jpg"
                    },
                    {
                        "id" : 3,
                        "img" : "/images/smarterre/transport_energie/faible_impact.jpg"
                    },
                    {
                        "id" : 4,
                        "img" : "/images/smarterre/transport_energie/pratique_usage.jpg"
                    },
                    {
                        "id" : 5,
                        "img" : "/images/smarterre/transport_energie/innovation.jpg"
                    },
                    {
                        "id" : 6,
                        "img" : "/images/smarterre/transport_energie/production.jpg"
                    },
                    {
                        "id" : 7,
                        "img" : "/images/smarterre/transport_energie/moins_de_transport.jpg"
                    },
                    {
                        "id" : 8,
                        "img" : "/images/smarterre/transport_energie/objectifs.jpg"
                    }
                ]
            },

        "construction" : {
            "element" : [
                    { 
                        "id" : 1,
                        "img" : "/images/smarterre/construction/action_perso.jpeg"
                    },
                    {
                        "id" : 2,
                        "img" : "/images/smarterre/construction/domicile.jpeg"
                    },
                    {
                        "id" : 3,
                        "img" : "/images/smarterre/construction/conception.jpeg"
                    },
                    {
                        "id" : 4,
                        "img" : "/images/smarterre/construction/urbanisme.jpeg"
                    },
                    {
                        "id" : 5,
                        "img" : "/images/smarterre/construction/domicile.jpeg"
                    },
                    {
                        "id" : 6,
                        "img" : "/images/smarterre/construction/education.jpg"
                    }
            ]
        }
    }
}
