{
    "welcomeTpl" : "costum.views.custom.tepozEnComun.home",
    "slug" : "tepozencomun",
    "host" : "www.tepozencomun.org",
    "favicon" : "/ico/tepozEnComun/favicon.ico",
    "metaImg" : "/images/tepozEnComun/banner.jpeg",
    "language" : "es",
    "sourceKey" : true,
    "filters" : {
        "searchTypeGS" : [ 
            "organizations", 
            "projects", 
            "citoyens", 
            "proposals"
        ],
        "sourceKey" : true
    },
    "typeObj" : {
        "organizations" : {
            "add" : true
        },
        "projects" : {
            "add" : true
        },
        "citoyens" : {
            "add" : true
        },
        "events" : {
            "add" : true
        },
        "proposals" : {
            "add" : true
        }
    },
    "htmlConstruct" : {
        "appRendering" : "vertical",
        "redirect" : {
            "logged" : "live",
            "unlogged" : "welcome"
        },
        "adminPanel" : {
            "add" : true,
            "menu" : {
                "statistic" : true,
                "directory" : true,
                "reference" : {
                    "label" : "Référencement",
                    "show" : true,
                    "initType" : [ 
                        "organizations", 
                        "citoyens"
                    ]
                },
                "mails" : true,
                "notsendmail" : true,
                "mailerror" : true
            }
        },
        "header" : {
            "menuTop" : {
                "navLeft" : {
                    "logo" : {
                        "height" : 40
                    },
                    "searchBar" : true
                },
                "navRight" : {
                    "connected" : {
                        "dropdownUser" : {
                            "languages" : true,
                            "statistics" : false,
                            "documentation" : false,
                            "donate" : false,
                            "admin" : true,
                            "settings" : true,
                            "logout" : true
                        },
                        "userProfil" : {
                            "img" : true,
                            "name" : true
                        },
                        "networkFloop" : true,
                        "notifications" : true,
                        "home" : true,
                        "chat" : false
                    },
                    "disconnected" : {
                        "languages" : true,
                        "login" : true
                    }
                }
            }
        },
        "directory" : {
            "results" : {
                "organizations" : {
                    "defaultImg" : "/images/tepozEnComun/default_directory.jpeg"
                },
                "projects" : {
                    "defaultImg" : "/images/tepozEnComun/default_directory.jpeg"
                },
                "events" : {
                    "defaultImg" : "/images/tepozEnComun/default_directory.jpeg"
                },
                "proposals" : {
                    "defaultImg" : "/images/tepozEnComun/default_directory.jpeg"
                }
            }
        },
        "element" : {
            "initView" : "newspaper",
            "menuLeft" : {
                "newspaper" : {
                    "label" : "Noticias",
                    "icon" : "rss",
                    "class" : "",
                    "view" : "newspaper"
                },
                "cospace" : {
                    "label" : "Co-Espacio",
                    "icon" : "connectdevelop",
                    "class" : "",
                    "dataAttr" : {
                        "toggle" : "modal",
                        "target" : "#modalCoop"
                    },
                    "action" : "cospace"
                },
                "community" : {
                    "icon" : "user"
                },
                "events" : true,
                "projects" : true,
                "gallery" : {
                    "label" : "Archivos",
                    "icon" : "cloud",
                    "view" : "gallery"
                },
                "detail" : true
            },
            "menuTop" : {
                "img" : true,
                "btnGroup" : {
                    "params" : {
                        "dropdown" : {
                            "settings" : true,
                            "editSlug" : true,
                            "delete" : true
                        }
                    }
                }
            }
        },
        "menuBottom" : {
            "add" : true,
            "donate" : false
        },
        "footer" : false
    },
    "css" : {
        "loader" : {
            "background" : "white",
            "ring1" : {
                "color" : "#dee636",
                "height" : 360,
                "width" : 360,
                "left" : -15,
                "borderWidth" : 4,
                "top" : -35
            },
            "ring2" : {
                "color" : "#2d4752",
                "height" : 350,
                "width" : 350,
                "left" : -10,
                "borderWidth" : 5,
                "top" : -30
            }
        },
        "progress" : {
            "value" : {
                "background" : "#354751"
            },
            "bar" : {
                "background" : "#fff"
            }
        },
        "menuTop" : {
            "background" : "white",
            "button" : {
                "paddingTop" : 0,
                "fontSize" : 30,
                "color" : "#354751"
            },
            "badge" : {
                "background" : "#337ab7",
                "border" : "1px solid white"
            },
            "scopeBtn" : {
                "display" : "none"
            },
            "filterBtn" : {
                "display" : "none"
            },
            "connectBtn" : {
                "background" : "#354751",
                "color" : "white",
                "fontSize" : 18,
                "borderRadius" : "10px",
                "padding" : "8px 15px",
                "float" : "left"
            }
        },
        "menuApp" : {
            "top" : "58",
            "background" : "#354751",
            "button" : {
                "fontSize" : 25,
                "color" : "#fff",
                "hover" : {
                    "borderBottom" : "2px solid #fff"
                }
            }
        },
        "button" : {
            "footer" : {
                "add" : {
                    "bottom" : 50,
                    "background" : "transparent",
                    "color" : "white"
                },
                "toolbarAdds" : {
                    "bottom" : 30
                }
            }
        },
        "color" : {
            "green" : "#93C020",
            "blue" : "#3595a8",
            "dark" : "#444"
        }
    },
    "app" : {
        "#live" : {
            "subdomainName" : "Noticias",
            "icon" : "rss",
            "useFilter" : false,
            "setParams" : {
                "source" : "tepozencomun"
            }
        },
        "#agenda" : {
            "subdomainName" : "Eventos",
            "placeholderMainSearch" : "qué estás buscando ?"
        },
        "#dda" : {
            "subdomainName" : "Propuestas"
        },
        "#membres" : {
            "hash" : "#app.search",
            "icon" : "user",
            "urlExtra" : "/page/membres",
            "useHeader" : true,
            "useFilter" : true,
            "inMenu" : true,
            "open" : true,
            "subdomainName" : "Miembros",
            "filters" : {
                "types" : [ 
                    "citoyens"
                ]
            },
            "placeholderMainSearch" : "qué estás buscando ?"
        },
        "#organizations" : {
            "hash" : "#app.search",
            "icon" : "users",
            "urlExtra" : "/page/organizations",
            "useHeader" : true,
            "useFilter" : true,
            "inMenu" : true,
            "open" : true,
            "subdomainName" : "Organizaciones",
            "filters" : {
                "types" : [ 
                    "organizations"
                ]
            },
            "placeholderMainSearch" : "qué estás buscando ?"
        },
        "#search" : {
            "subdomainName" : "Proyectos",
            "icon" : "lightbulb-o",
            "filters" : {
                "types" : [ 
                    "projects"
                ]
            }
        }
    }
}