<?xml version="1.0" encoding="utf-8"?>
<!-- Generator: Adobe Illustrator 23.0.3, SVG Export Plug-In . SVG Version: 6.00 Build 0)  -->
<svg version="1.1" id="Calque_1" xmlns="http://www.w3.org/2000/svg" xmlns:xlink="http://www.w3.org/1999/xlink" x="0px" y="0px"
	 viewBox="0 0 268.5 113.1" style="enable-background:new 0 0 268.5 113.1;" xml:space="preserve">
<style type="text/css">
	.st0{fill:#CC0000;}
</style>
<g>
	<g>
		<path class="st0" d="M167.4,73.7l-1.3-0.8c-0.2-0.1-0.4-0.1-0.6,0c-6.1,3.1-11.5,4.5-16.4,4.5c-4.4,0-7.2-1.3-7.2-3.2
			c0-1.2,0.2-2.2,0.6-3.2c7.3-0.4,28.8-2.2,28.8-10.2c0-3.7-7-4.1-10-4.1c-14,0-28.3,8.7-28.3,17.3c0,1.7,0.9,7.3,12.4,7.3
			c7.4,0,14.2-2,22.1-6.5c0.2-0.1,0.3-0.3,0.3-0.5C167.7,74.1,167.6,73.8,167.4,73.7z M158.9,59.5c2,0,3.3,0.6,3.3,1.5
			c0,4.3-9.2,6.9-18.7,7.4C145.7,65.2,152.2,59.5,158.9,59.5z M103.8,60.2c-0.1-0.2-0.3-0.3-0.5-0.3h-9.6l2.9-6c1.2-2.7,2.8-6,8.4-6
			c1.1,0,2.1,0.3,3.2,0.5c1,0.3,1.9,0.5,2.9,0.5c0.9,0,1.8-0.4,2.5-1.2c0.5-0.6,0.9-1.3,0.9-1.9c0-1.4-1.7-2.2-4.6-2.2
			c-3.8,0-8,1.3-10.5,2.5c-9.1,4.2-11.7,8.6-14.5,13.8h-8.1c-0.2,0-0.4,0.1-0.6,0.3l-1.1,2.1c-0.1,0.2-0.1,0.4,0,0.6
			c0.1,0.2,0.3,0.3,0.5,0.3h7.7L68.9,93.7c-0.1,0.2-0.1,0.5,0.1,0.7l0.3,0.3c0.1,0.1,0.3,0.2,0.5,0.2l5.9-0.9c0.2,0,0.4-0.2,0.5-0.3
			L92,63.1h10.1c0.2,0,0.4-0.1,0.5-0.3l1.2-2.1C103.9,60.7,103.9,60.3,103.8,60.2z M135,63.8c3.3,0,4.7-2.8,4.7-4.3
			c0-1.1-0.6-2.3-3.6-2.3c-3.8,0-9,3.1-15.7,9.1l2-3.8c0.9-1.8,1-2.5,1-2.9c0-1.1-0.8-2.5-4.6-2.5c-4.9,0-12.4,4.9-14.9,6.8
			c-0.2,0.1-0.3,0.3-0.2,0.5c0,0.2,0.1,0.4,0.3,0.5l1.2,0.8c0.2,0.1,0.5,0.1,0.7,0c1.2-0.8,5.2-3.2,7.7-3.2c0.5,0,0.8,0.2,1,0.3
			c0.2,0.1,0.2,0.3,0.2,0.4c0,0.5-0.6,1.8-1.1,2.6c0,0-7.3,13.2-7.6,13.7c-0.1,0.2-0.3,0.4-0.3,0.8c0,1.4,3.7,1.5,3.7,1.5
			c2.9,0,3.7-0.1,4-0.7c0,0,1.6-2.9,1.7-3.2c3.4-5.4,9.9-14.4,16.1-14.4c0.6,0,1.1,0,1.7,0.1C133.8,63.8,134.4,63.8,135,63.8z
			 M207.6,60.8c0-1.1-0.6-2.5-3.5-3.4c-2.1-0.6-4.7-0.8-6.5-0.8c-6.7,0-13.7,2-19.4,5.5c-5.7,3.5-8.9,7.8-8.9,11.8
			c0,1.7,0.9,7.3,12.4,7.3c7.4,0,14.2-2,22.1-6.5c0.2-0.1,0.3-0.3,0.3-0.5s-0.1-0.4-0.3-0.5l-1.3-0.8c-0.2-0.1-0.4-0.1-0.6,0
			c-6.1,3.1-11.5,4.5-16.4,4.5c-4.4,0-7.2-1.3-7.2-3.2c0-1.2,0.2-2.2,0.6-3.2C186.1,70.6,207.6,68.8,207.6,60.8z M195.4,59.5
			c1.1,0,2,0.2,2.6,0.5c0.5,0.3,0.7,0.6,0.7,1c0,4.3-9.2,6.9-18.7,7.4C182.2,65.2,188.7,59.5,195.4,59.5z"/>
	</g>
	<g>
		<g>
			<path class="st0" d="M71.5,38.8h-1.6V19.5h12.5v1.2H71.5V29h10.3v1.3H71.5V38.8z"/>
			<path class="st0" d="M99.6,31.7c0,2.3-0.7,4.2-2,5.5s-3.2,2-5.6,2c-1.5,0-2.8-0.3-3.9-0.9c-1.1-0.6-2-1.5-2.6-2.6
				s-0.9-2.5-0.9-3.9c0-2.3,0.7-4.2,2-5.5s3.2-2,5.5-2c2.3,0,4.2,0.7,5.5,2S99.6,29.4,99.6,31.7z M86.2,31.7c0,2,0.5,3.5,1.5,4.6
				s2.5,1.7,4.4,1.7s3.3-0.6,4.4-1.7c1-1.1,1.5-2.6,1.5-4.6s-0.5-3.5-1.6-4.6c-1-1.1-2.5-1.6-4.4-1.6s-3.3,0.5-4.3,1.6
				C86.7,28.1,86.2,29.6,86.2,31.7z"/>
			<path class="st0" d="M116.2,38.8v-9.3c0-1.4-0.4-2.5-1.1-3.2c-0.7-0.7-1.8-1-3.3-1c-2,0-3.5,0.4-4.5,1.3
				c-0.9,0.9-1.4,2.3-1.4,4.2v7.9h-1.5V24.5h1.3l0.3,2h0.1c1.1-1.5,3.1-2.3,5.9-2.3c3.9,0,5.8,1.8,5.8,5.3v9.4H116.2z"/>
			<path class="st0" d="M129.5,24.2c1.2,0,2.3,0.2,3.2,0.6s1.7,1,2.4,1.9h0.1c-0.1-1.1-0.1-2.2-0.1-3.3v-5.2h1.5v20.6h-1l-0.4-2.2
				h-0.1c-1.3,1.6-3.1,2.5-5.6,2.5c-2.3,0-4.1-0.6-5.4-1.9c-1.2-1.2-1.9-3-1.9-5.4c0-2.5,0.6-4.4,1.8-5.7
				C125.3,24.9,127.1,24.2,129.5,24.2z M129.5,25.4c-1.9,0-3.3,0.6-4.2,1.7s-1.4,2.7-1.4,4.8c0,4.1,1.9,6.1,5.6,6.1
				c1.9,0,3.3-0.5,4.2-1.4s1.3-2.5,1.3-4.7v-0.2c0-2.2-0.4-3.8-1.3-4.8C132.9,25.9,131.4,25.4,129.5,25.4z"/>
			<path class="st0" d="M152.6,38.8l-0.4-2.3h-0.1c-0.9,0.9-1.7,1.6-2.6,2c-0.9,0.4-2,0.6-3.2,0.6c-1.7,0-3-0.4-3.9-1.1
				c-0.9-0.7-1.4-1.7-1.4-3c0-1.4,0.7-2.5,2.1-3.3c1.4-0.8,3.4-1.2,6-1.2l3.2-0.1v-1c0-1.4-0.3-2.4-1-3.1s-1.7-1-3.2-1
				c-1.6,0-3.2,0.4-4.9,1.1l-0.6-1.1c1.9-0.7,3.7-1.1,5.5-1.1c1.9,0,3.3,0.4,4.2,1.2c0.9,0.8,1.4,2.1,1.4,3.8v9.6H152.6z M146.4,38
				c1.8,0,3.2-0.4,4.3-1.3c1-0.9,1.6-2.1,1.6-3.7v-1.4l-3,0.1c-2.4,0.1-4.1,0.4-5.1,0.9s-1.5,1.4-1.5,2.5c0,0.9,0.3,1.6,1,2.1
				C144.3,37.7,145.2,38,146.4,38z"/>
			<path class="st0" d="M163.8,38c1,0,1.8-0.1,2.6-0.2v1.1c-0.8,0.2-1.6,0.3-2.6,0.3c-1.5,0-2.6-0.3-3.3-1s-1.1-1.7-1.1-3.2v-9.3
				h-2.5v-0.8l2.5-0.6l0.8-3.3h0.8v3.5h5v1.1h-5v9.1c0,1.1,0.2,1.9,0.7,2.4C162.1,37.8,162.8,38,163.8,38z"/>
			<path class="st0" d="M169.8,20.5c0-0.8,0.3-1.3,1-1.3c0.3,0,0.6,0.1,0.8,0.3c0.2,0.2,0.3,0.5,0.3,0.9s-0.1,0.7-0.3,0.9
				c-0.2,0.2-0.4,0.3-0.8,0.3C170.1,21.8,169.8,21.4,169.8,20.5z M171.5,38.8H170V24.5h1.5V38.8z"/>
			<path class="st0" d="M191.3,31.7c0,2.3-0.7,4.2-2,5.5s-3.2,2-5.6,2c-1.5,0-2.8-0.3-3.9-0.9c-1.1-0.6-2-1.5-2.6-2.6
				s-0.9-2.5-0.9-3.9c0-2.3,0.7-4.2,2-5.5s3.2-2,5.5-2s4.2,0.7,5.5,2S191.3,29.4,191.3,31.7z M177.9,31.7c0,2,0.5,3.5,1.5,4.6
				s2.5,1.7,4.4,1.7s3.3-0.6,4.4-1.7c1-1.1,1.5-2.6,1.5-4.6s-0.5-3.5-1.6-4.6c-1-1.1-2.5-1.6-4.4-1.6s-3.3,0.5-4.3,1.6
				C178.4,28.1,177.9,29.6,177.9,31.7z"/>
			<path class="st0" d="M207.9,38.8v-9.3c0-1.4-0.4-2.5-1.1-3.2c-0.7-0.7-1.8-1-3.3-1c-2,0-3.5,0.4-4.5,1.3
				c-0.9,0.9-1.4,2.3-1.4,4.2v7.9h-1.5V24.5h1.3l0.3,2h0.1c1.1-1.5,3.1-2.3,5.9-2.3c3.9,0,5.8,1.8,5.8,5.3v9.4H207.9z"/>
		</g>
	</g>
</g>
</svg>
