 {
        "_id" : ObjectId("5d4d0dae2f626627068b4570"),
        "contextId" : "5d0b6b7fa1d9f073798b4568",
        "contextType" : "organizations",
        "name" : "Alimentation",
        "created" : NumberLong(1565330862),
        "updated" : NumberLong(1565330862),
        "docType" : "smarterre.sante"
    }
    {
        "_id" : ObjectId("5d4d0dbc2f626635078b4567"),
        "contextId" : "5d0b6b7fa1d9f073798b4568",
        "contextType" : "organizations",
        "name" : "Modifier notre mode alimentaire (rechercher “l’équilibre acido-basique”)",
        "created" : NumberLong(1565330876),
        "updated" : NumberLong(1565330876),
        "parentId" : "5d4d0dae2f626627068b4570",
        "docType" : "smarterre.sante"
    }
    {
        "_id" : ObjectId("5d4d0ddd2f6266f3048b4570"),
        "contextId" : "5d0b6b7fa1d9f073798b4568",
        "contextType" : "organizations",
        "name" : "Offrir plus de place aux  aliments non transformés  par la cuisson et l’industrie (plus je me rapproche de ce que m’offre la terre, plus les aliments sont simples)",
        "created" : NumberLong(1565330909),
        "updated" : NumberLong(1565330909),
        "parentId" : "5d4d0dae2f626627068b4570",
        "docType" : "smarterre.sante"
    }
    {
        "_id" : ObjectId("5d4d0de72f626605068b456f"),
        "contextId" : "5d0b6b7fa1d9f073798b4568",
        "contextType" : "organizations",
        "name" : "moins je me pollue, moins je pollue ",
        "created" : NumberLong(1565330919),
        "updated" : NumberLong(1565330919),
        "parentId" : "5d4d0dae2f626627068b4570",
        "docType" : "smarterre.sante"
    }
    {
        "_id" : ObjectId("5d4d0dfb2f626608068b456f"),
        "contextId" : "5d0b6b7fa1d9f073798b4568",
        "contextType" : "organizations",
        "name" : "Expérimenter la richesse de la nature et “Sa” propre créativité pour soutenir et accompagner nos traitements",
        "created" : NumberLong(1565330939),
        "updated" : NumberLong(1565330939),
        "parentId" : "5d4d0dae2f626627068b4570",
        "docType" : "smarterre.sante"
    }
    {
        "_id" : ObjectId("5d4d0eee2f626608068b4570"),
        "contextId" : "5d0b6b7fa1d9f073798b4568",
        "contextType" : "organizations",
        "name" : "Bien être",
        "created" : NumberLong(1565330862),
        "updated" : NumberLong(1565330862),
        "docType" : "smarterre.sante"
    }
    {
        "_id" : ObjectId("5d4d0efa2f626634078b4567"),
        "contextId" : "5d0b6b7fa1d9f073798b4568",
        "contextType" : "organizations",
        "name" : " Retour aux sources, aux racines",
        "created" : NumberLong(1565331194),
        "updated" : NumberLong(1565331194),
        "parentId" : "5d4d0eee2f626608068b4570",
        "docType" : "smarterre.sante"
    }
    {
        "_id" : ObjectId("5d4d0f042f6266f3048b4571"),
        "contextId" : "5d0b6b7fa1d9f073798b4568",
        "contextType" : "organizations",
        "name" : "Nourrir son RIRE",
        "created" : NumberLong(1565331204),
        "updated" : NumberLong(1565331204),
        "parentId" : "5d4d0eee2f626608068b4570",
        "docType" : "smarterre.sante"
    }
    {
        "_id" : ObjectId("5d4d0f0d2f626620068b456e"),
        "contextId" : "5d0b6b7fa1d9f073798b4568",
        "contextType" : "organizations",
        "name" : "expérimentons les effets du Partage et des actions solidaires",
        "created" : NumberLong(1565331213),
        "updated" : NumberLong(1565331213),
        "parentId" : "5d4d0eee2f626608068b4570",
        "docType" : "smarterre.sante"
    }
    {
        "_id" : ObjectId("5d4d0f2b2f626627068b4571"),
        "contextId" : "5d0b6b7fa1d9f073798b4568",
        "contextType" : "organizations",
        "name" : "Comprendre l’énergie de la nature, de notre nature : Chi Kong, Thai Chi, Yoga, Méditation, être soi dans la pleine conscience",
        "created" : NumberLong(1565331243),
        "updated" : NumberLong(1565331243),
        "parentId" : "5d4d0eee2f626608068b4570",
        "docType" : "smarterre.sante"
    }
    {
        "_id" : ObjectId("5d4d0f3c2f62662b078b4567"),
        "contextId" : "5d0b6b7fa1d9f073798b4568",
        "contextType" : "organizations",
        "name" : "Education",
        "created" : NumberLong(1565331260),
        "updated" : NumberLong(1565331260),
        "docType" : "smarterre.sante"
    }
    {
        "_id" : ObjectId("5d4d0f442f6266a8078b4567"),
        "contextId" : "5d0b6b7fa1d9f073798b4568",
        "contextType" : "organizations",
        "name" : "Découvrons l’alimentation “vivante” comme des enfants",
        "created" : NumberLong(1565331268),
        "updated" : NumberLong(1565331268),
        "parentId" : "5d4d0f3c2f62662b078b4567",
        "docType" : "smarterre.sante"
    }
    {
        "_id" : ObjectId("5d4d0f4d2f6266a8078b4568"),
        "contextId" : "5d0b6b7fa1d9f073798b4568",
        "contextType" : "organizations",
        "name" : "Retombons en enfance pour nos enfants !",
        "created" : NumberLong(1565331277),
        "updated" : NumberLong(1565331277),
        "parentId" : "5d4d0f3c2f62662b078b4567",
        "docType" : "smarterre.sante"
    }
    {
        "_id" : ObjectId("5d4d0f6a2f626608068b4571"),
        "contextId" : "5d0b6b7fa1d9f073798b4568",
        "contextType" : "organizations",
        "name" : "Nous sommes un produit de la nature, renouons le lien avec elle, qui nous donne tout sans rien attendre en retour",
        "created" : NumberLong(1565331306),
        "updated" : NumberLong(1565331306),
        "parentId" : "5d4d0f3c2f62662b078b4567",
        "docType" : "smarterre.sante"
    }
    {
        "_id" : ObjectId("5d4d0faa2f626620068b456f"),
        "contextId" : "5d0b6b7fa1d9f073798b4568",
        "contextType" : "organizations",
        "name" : "PRODUIRE LOCALEMENT",
        "created" : NumberLong(1565331370),
        "updated" : NumberLong(1565331370),
        "docType" : "smarterre.sante"
    }
    {
        "_id" : ObjectId("5d4d0fb42f6266a8068b456a"),
        "contextId" : "5d0b6b7fa1d9f073798b4568",
        "contextType" : "organizations",
        "name" : "AMAP Péi Bio ( Producteurs locaux )",
        "created" : NumberLong(1565331380),
        "updated" : NumberLong(1565331380),
        "parentId" : "5d4d0faa2f626620068b456f",
        "docType" : "smarterre.sante"
    }
    {
        "_id" : ObjectId("5d4d0fbc2f626627068b4572"),
        "contextId" : "5d0b6b7fa1d9f073798b4568",
        "contextType" : "organizations",
        "name" : "Mon ti Jardin",
        "created" : NumberLong(1565331388),
        "updated" : NumberLong(1565331388),
        "parentId" : "5d4d0faa2f626620068b456f",
        "docType" : "smarterre.sante"
    }
    {
        "_id" : ObjectId("5d4d0fc42f62662b078b4568"),
        "contextId" : "5d0b6b7fa1d9f073798b4568",
        "contextType" : "organizations",
        "name" : " Agriculture urbaine",
        "created" : NumberLong(1565331396),
        "updated" : NumberLong(1565331396),
        "parentId" : "5d4d0faa2f626620068b456f",
        "docType" : "smarterre.sante"
    }
    {
        "_id" : ObjectId("5d4d0fcd2f62662c078b4567"),
        "contextId" : "5d0b6b7fa1d9f073798b4568",
        "contextType" : "organizations",
        "name" : "Jardins collectif",
        "created" : NumberLong(1565331405),
        "updated" : NumberLong(1565331405),
        "parentId" : "5d4d0faa2f626620068b456f",
        "docType" : "smarterre.sante"
    }
    {
        "_id" : ObjectId("5d4d0fd72f6266a8078b4569"),
        "contextId" : "5d0b6b7fa1d9f073798b4568",
        "contextType" : "organizations",
        "name" : "Santé",
        "created" : NumberLong(1565331415),
        "updated" : NumberLong(1565331415),
        "docType" : "smarterre.sante"
    }
    {
        "_id" : ObjectId("5d4d0fe02f626635078b4568"),
        "contextId" : "5d0b6b7fa1d9f073798b4568",
        "contextType" : "organizations",
        "name" : "Prendre de soin de sa terre, c’est prendre soin de soi",
        "created" : NumberLong(1565331424),
        "updated" : NumberLong(1565331424),
        "parentId" : "5d4d0fd72f6266a8078b4569",
        "docType" : "smarterre.sante"
    }
    {
        "_id" : ObjectId("5d4d0fe92f626634078b4568"),
        "contextId" : "5d0b6b7fa1d9f073798b4568",
        "contextType" : "organizations",
        "name" : "La “bonne santé” de nos aliments contribue à la nôtre",
        "created" : NumberLong(1565331433),
        "updated" : NumberLong(1565331433),
        "parentId" : "5d4d0fd72f6266a8078b4569",
        "docType" : "smarterre.sante"
    }
    {
        "_id" : ObjectId("5d4d0ff42f626608068b4572"),
        "contextId" : "5d0b6b7fa1d9f073798b4568",
        "contextType" : "organizations",
        "name" : "La qualité du  “Bonheur Intérieur Brut” de l’être humain est étroitement liée à sa santé, à son environnement",
        "created" : NumberLong(1565331444),
        "updated" : NumberLong(1565331444),
        "parentId" : "5d4d0fd72f6266a8078b4569",
        "docType" : "smarterre.sante"
    }
    {
        "_id" : ObjectId("5d4d102b2f6266a8068b456b"),
        "contextId" : "5d0b6b7fa1d9f073798b4568",
        "contextType" : "organizations",
        "name" : "CONSOMM’ACTEUR",
        "created" : NumberLong(1565331499),
        "updated" : NumberLong(1565331499),
        "docType" : "smarterre.sante"
    }
    {
        "_id" : ObjectId("5d4d10382f626627068b4573"),
        "contextId" : "5d0b6b7fa1d9f073798b4568",
        "contextType" : "organizations",
        "name" : "Choisir ses aliments en pleine conscience/prendre le temps…",
        "created" : NumberLong(1565331512),
        "updated" : NumberLong(1565331512),
        "parentId" : "5d4d102b2f6266a8068b456b",
        "docType" : "smarterre.sante"
    }
    {
        "_id" : ObjectId("5d4d10442f62662b078b4569"),
        "contextId" : "5d0b6b7fa1d9f073798b4568",
        "contextType" : "organizations",
        "name" : "Économique (privilégier les circuits courts/valoriser les ressources locales)",
        "created" : NumberLong(1565331524),
        "updated" : NumberLong(1565331524),
        "parentId" : "5d4d102b2f6266a8068b456b",
        "docType" : "smarterre.sante"
    }
    {
        "_id" : ObjectId("5d4d104d2f62662c078b4568"),
        "contextId" : "5d0b6b7fa1d9f073798b4568",
        "contextType" : "organizations",
        "name" : "Écologique ( choisir des produits “sains”)",
        "created" : NumberLong(1565331533),
        "updated" : NumberLong(1565331533),
        "parentId" : "5d4d102b2f6266a8068b456b",
        "docType" : "smarterre.sante"
    }
    {
        "_id" : ObjectId("5d4d106a2f626635078b4569"),
        "contextId" : "5d0b6b7fa1d9f073798b4568",
        "contextType" : "organizations",
        "name" : "Main de L’homme",
        "created" : NumberLong(1565331562),
        "updated" : NumberLong(1565331562),
        "docType" : "smarterre.sante"
    }
    {
        "_id" : ObjectId("5d4d10702f626634078b4569"),
        "contextId" : "5d0b6b7fa1d9f073798b4568",
        "contextType" : "organizations",
        "name" : "Massages",
        "created" : NumberLong(1565331568),
        "updated" : NumberLong(1565331568),
        "parentId" : "5d4d106a2f626635078b4569",
        "docType" : "smarterre.sante"
    }
    {
        "_id" : ObjectId("5d4d10782f626634078b456a"),
        "contextId" : "5d0b6b7fa1d9f073798b4568",
        "contextType" : "organizations",
        "name" : "Reiki, Kinésiologie,soins energétiques",
        "created" : NumberLong(1565331576),
        "updated" : NumberLong(1565331576),
        "parentId" : "5d4d106a2f626635078b4569",
        "docType" : "smarterre.sante"
    }
    {
        "_id" : ObjectId("5d4d10812f6266f3048b4573"),
        "contextId" : "5d0b6b7fa1d9f073798b4568",
        "contextType" : "organizations",
        "name" : "Microkinésithérapie",
        "created" : NumberLong(1565331585),
        "updated" : NumberLong(1565331585),
        "parentId" : "5d4d106a2f626635078b4569",
        "docType" : "smarterre.sante"
    }
    {
        "_id" : ObjectId("5d4d10882f626620068b4570"),
        "contextId" : "5d0b6b7fa1d9f073798b4568",
        "contextType" : "organizations",
        "name" : "Réflexologie",
        "created" : NumberLong(1565331592),
        "updated" : NumberLong(1565331592),
        "parentId" : "5d4d106a2f626635078b4569",
        "docType" : "smarterre.sante"
    }
    {
        "_id" : ObjectId("5d4d10922f6266a8068b456c"),
        "contextId" : "5d0b6b7fa1d9f073798b4568",
        "contextType" : "organizations",
        "name" : "Plantes",
        "created" : NumberLong(1565331602),
        "updated" : NumberLong(1565331602),
        "docType" : "smarterre.sante"
    }
    {
        "_id" : ObjectId("5d4d10bc2f62662b078b456a"),
        "contextId" : "5d0b6b7fa1d9f073798b4568",
        "contextType" : "organizations",
        "name" : "Plantes Médicinales",
        "created" : NumberLong(1565331644),
        "updated" : NumberLong(1565331644),
        "parentId" : "5d4d10922f6266a8068b456c",
        "docType" : "smarterre.sante"
    }
    {
        "_id" : ObjectId("5d4d10c62f62662c078b4569"),
        "contextId" : "5d0b6b7fa1d9f073798b4568",
        "contextType" : "organizations",
        "name" : "Découvrir ses essences : Phytothérapie, Aromathérapie, Tisaneurs, Huiles essentielles",
        "created" : NumberLong(1565331654),
        "updated" : NumberLong(1565331654),
        "parentId" : "5d4d10922f6266a8068b456c",
        "docType" : "smarterre.sante"
    }
    {
        "_id" : ObjectId("5d4d10ce2f62662c078b456a"),
        "contextId" : "5d0b6b7fa1d9f073798b4568",
        "contextType" : "organizations",
        "name" : "Attention",
        "created" : NumberLong(1565331662),
        "updated" : NumberLong(1565331662),
        "docType" : "smarterre.sante"
    }
    {
        "_id" : ObjectId("5d4d10d62f6266a8078b456a"),
        "contextId" : "5d0b6b7fa1d9f073798b4568",
        "contextType" : "organizations",
        "name" : "Les produits BIO industriels restent des produits industriels transformés !",
        "created" : NumberLong(1565331670),
        "updated" : NumberLong(1565331670),
        "parentId" : "5d4d10ce2f62662c078b456a",
        "docType" : "smarterre.sante"
    }
    {
        "_id" : ObjectId("5d4d10e12f626635078b456a"),
        "contextId" : "5d0b6b7fa1d9f073798b4568",
        "contextType" : "organizations",
        "name" : "aux pressions des médias, génératrices de croyances (prise de recul face à toutes les injonctions publicitaires)",
        "created" : NumberLong(1565331681),
        "updated" : NumberLong(1565331681),
        "parentId" : "5d4d10ce2f62662c078b456a",
        "docType" : "smarterre.sante"
    }
    {
        "_id" : ObjectId("5d4d10f02f626634078b456b"),
        "contextId" : "5d0b6b7fa1d9f073798b4568",
        "contextType" : "organizations",
        "name" : "Vous êtes unique: ce qui est bon pour l’un, ne l’est pas forcement pour vous",
        "created" : NumberLong(1565331696),
        "updated" : NumberLong(1565331696),
        "parentId" : "5d4d10ce2f62662c078b456a",
        "docType" : "smarterre.sante"
    }